45.0 APEX_CODE,DEBUG;APEX_PROFILING,INFO;CALLOUT,INFO;DB,INFO;NBA,INFO;SYSTEM,DEBUG;VALIDATION,INFO;VISUALFORCE,INFO;WAVE,INFO;WORKFLOW,NONE
01:20:49.0 (627143)|EXECUTION_STARTED
01:20:49.0 (693623)|CODE_UNIT_STARTED|[EXTERNAL]|VisualForce View State
01:20:49.0 (14708184)|CODE_UNIT_FINISHED|VisualForce View State
01:20:49.0 (15950907)|EXECUTION_FINISHED
01:20:49.204 (204896446)|CUMULATIVE_LIMIT_USAGE
01:20:49.204 (204896446)|LIMIT_USAGE_FOR_NS|(default)|
  Number of SOQL queries: 0 out of 100
  Number of query rows: 0 out of 50000
  Number of SOSL queries: 0 out of 20
  Number of DML statements: 0 out of 150
  Number of DML rows: 0 out of 10000
  Maximum CPU time: 0 out of 10000
  Maximum heap size: 0 out of 6000000
  Number of callouts: 0 out of 100
  Number of Email Invocations: 0 out of 10
  Number of future calls: 0 out of 50
  Number of queueable jobs added to the queue: 0 out of 50
  Number of Mobile Apex push calls: 0 out of 10

01:20:49.204 (204896446)|CUMULATIVE_LIMIT_USAGE_END

