45.0 APEX_CODE,DEBUG;APEX_PROFILING,INFO;CALLOUT,INFO;DB,INFO;NBA,INFO;SYSTEM,DEBUG;VALIDATION,INFO;VISUALFORCE,INFO;WAVE,INFO;WORKFLOW,NONE
03:50:43.0 (198680)|USER_INFO|[EXTERNAL]|0051N000006IqOb|developer@fastslowmotion.com.partial|(GMT-05:00) Central Daylight Time (America/Chicago)|GMT-05:00
03:50:43.0 (239303)|EXECUTION_STARTED
03:50:43.0 (245356)|CODE_UNIT_STARTED|[EXTERNAL]|066f0000000Wtdk|VF: /apex/NewInvoiceAdjustment
03:50:43.0 (521812)|VF_DESERIALIZE_VIEWSTATE_BEGIN|066f0000000Wtdk
03:50:43.0 (8487376)|VF_DESERIALIZE_VIEWSTATE_END
03:50:43.0 (12080380)|SYSTEM_MODE_ENTER|true
03:50:43.0 (12379810)|SYSTEM_MODE_ENTER|true
03:50:43.0 (12495984)|SYSTEM_MODE_ENTER|true
03:50:43.0 (12554879)|SYSTEM_MODE_ENTER|true
03:50:43.0 (13086612)|SYSTEM_MODE_ENTER|true
03:50:43.0 (13302074)|SYSTEM_MODE_ENTER|true
03:50:43.0 (13495373)|SYSTEM_MODE_ENTER|true
03:50:43.0 (13590764)|SYSTEM_MODE_ENTER|true
03:50:43.0 (13675940)|SYSTEM_MODE_ENTER|true
03:50:43.0 (13729545)|SYSTEM_MODE_ENTER|true
03:50:43.0 (13962815)|SYSTEM_MODE_ENTER|true
03:50:43.0 (14019058)|SYSTEM_MODE_ENTER|true
03:50:43.0 (14063717)|SYSTEM_MODE_ENTER|true
03:50:43.0 (14168895)|SYSTEM_MODE_ENTER|true
03:50:43.0 (14246949)|SYSTEM_MODE_ENTER|true
03:50:43.0 (14318015)|SYSTEM_MODE_ENTER|true
03:50:43.0 (14382769)|SYSTEM_MODE_ENTER|true
03:50:43.0 (14558364)|SYSTEM_MODE_ENTER|true
03:50:43.0 (15484544)|SYSTEM_MODE_ENTER|true
03:50:43.0 (23328847)|SYSTEM_MODE_ENTER|true
03:50:43.0 (23420107)|SYSTEM_MODE_ENTER|true
03:50:43.0 (23470535)|SYSTEM_MODE_ENTER|true
03:50:43.0 (23609589)|SYSTEM_MODE_ENTER|true
03:50:43.0 (23696590)|SYSTEM_MODE_ENTER|true
03:50:43.0 (23761232)|SYSTEM_MODE_ENTER|true
03:50:43.0 (23805827)|SYSTEM_MODE_ENTER|true
03:50:43.0 (23863419)|SYSTEM_MODE_ENTER|true
03:50:43.0 (23902020)|SYSTEM_MODE_ENTER|true
03:50:43.0 (25726486)|SOQL_EXECUTE_BEGIN|[118]|Aggregations:0|SELECT Name,Type, Id FROM Account 
03:50:43.0 (30217550)|SOQL_EXECUTE_END|[118]|Rows:1
03:50:43.0 (32303431)|VF_SERIALIZE_VIEWSTATE_BEGIN|066f0000000Wtdk
03:50:43.0 (45371400)|VF_SERIALIZE_VIEWSTATE_END
03:50:43.0 (49200181)|CODE_UNIT_STARTED|[EXTERNAL]|Generate Metadata
03:50:43.0 (51801925)|CODE_UNIT_FINISHED|Generate Metadata
03:50:43.0 (87979241)|SYSTEM_MODE_ENTER|true
03:50:43.89 (89271136)|CUMULATIVE_LIMIT_USAGE
03:50:43.89 (89271136)|LIMIT_USAGE_FOR_NS|(default)|
  Number of SOQL queries: 1 out of 100
  Number of query rows: 1 out of 50000
  Number of SOSL queries: 0 out of 20
  Number of DML statements: 0 out of 150
  Number of DML rows: 0 out of 10000
  Maximum CPU time: 0 out of 10000
  Maximum heap size: 0 out of 6000000
  Number of callouts: 0 out of 100
  Number of Email Invocations: 0 out of 10
  Number of future calls: 0 out of 50
  Number of queueable jobs added to the queue: 0 out of 50
  Number of Mobile Apex push calls: 0 out of 10

03:50:43.89 (89271136)|CUMULATIVE_LIMIT_USAGE_END

03:50:43.0 (89324422)|CODE_UNIT_FINISHED|VF: /apex/NewInvoiceAdjustment
03:50:43.0 (90375067)|EXECUTION_FINISHED
