45.0 APEX_CODE,DEBUG;APEX_PROFILING,INFO;CALLOUT,INFO;DB,INFO;NBA,INFO;SYSTEM,DEBUG;VALIDATION,INFO;VISUALFORCE,INFO;WAVE,INFO;WORKFLOW,NONE
07:34:12.0 (165327)|EXECUTION_STARTED
07:34:12.0 (189212)|CODE_UNIT_STARTED|[EXTERNAL]|VisualForce View State
07:34:12.0 (8428862)|CODE_UNIT_FINISHED|VisualForce View State
07:34:12.0 (9628443)|EXECUTION_FINISHED
07:34:13.216 (1216891485)|VF_SERIALIZE_VIEWSTATE_BEGIN|
07:34:13.216 (1222663741)|VF_SERIALIZE_VIEWSTATE_END
07:34:13.244 (1244460835)|CUMULATIVE_LIMIT_USAGE
07:34:13.244 (1244460835)|LIMIT_USAGE_FOR_NS|(default)|
  Number of SOQL queries: 0 out of 100
  Number of query rows: 0 out of 50000
  Number of SOSL queries: 0 out of 20
  Number of DML statements: 0 out of 150
  Number of DML rows: 0 out of 10000
  Maximum CPU time: 0 out of 10000
  Maximum heap size: 0 out of 6000000
  Number of callouts: 0 out of 100
  Number of Email Invocations: 0 out of 10
  Number of future calls: 0 out of 50
  Number of queueable jobs added to the queue: 0 out of 50
  Number of Mobile Apex push calls: 0 out of 10

07:34:13.244 (1244460835)|CUMULATIVE_LIMIT_USAGE_END

