45.0 APEX_CODE,DEBUG;APEX_PROFILING,INFO;CALLOUT,INFO;DB,INFO;NBA,INFO;SYSTEM,DEBUG;VALIDATION,INFO;VISUALFORCE,INFO;WAVE,INFO;WORKFLOW,NONE
04:30:52.0 (419903)|USER_INFO|[EXTERNAL]|0051N000006IqOb|developer@fastslowmotion.com.partial|(GMT-05:00) Central Daylight Time (America/Chicago)|GMT-05:00
04:30:52.0 (457102)|EXECUTION_STARTED
04:30:52.0 (467186)|CODE_UNIT_STARTED|[EXTERNAL]|066f0000000Wtdk|VF: /apex/NewInvoiceAdjustment
04:30:52.0 (2349355)|SYSTEM_MODE_ENTER|true
04:30:52.0 (2813008)|SYSTEM_MODE_ENTER|true
04:30:52.0 (3161593)|SYSTEM_MODE_ENTER|true
04:30:52.0 (3228983)|SYSTEM_MODE_ENTER|true
04:30:52.0 (3269691)|SYSTEM_MODE_ENTER|true
04:30:52.0 (3470494)|SYSTEM_MODE_ENTER|true
04:30:52.0 (135656916)|SYSTEM_MODE_ENTER|true
04:30:52.0 (135832528)|SYSTEM_MODE_ENTER|true
04:30:52.0 (136197697)|SYSTEM_MODE_ENTER|true
04:30:52.0 (136251682)|SYSTEM_MODE_ENTER|true
04:30:52.0 (136313089)|SYSTEM_MODE_ENTER|true
04:30:52.0 (136357419)|SYSTEM_MODE_ENTER|true
04:30:52.0 (137330704)|SYSTEM_MODE_ENTER|true
04:30:52.0 (137385201)|SYSTEM_MODE_ENTER|true
04:30:52.0 (137420862)|SYSTEM_MODE_ENTER|true
04:30:52.0 (137567515)|SYSTEM_MODE_ENTER|true
04:30:52.0 (137660689)|SYSTEM_MODE_ENTER|true
04:30:52.0 (137718562)|SYSTEM_MODE_ENTER|true
04:30:52.0 (137769857)|SYSTEM_MODE_ENTER|true
04:30:52.0 (137897833)|SYSTEM_MODE_ENTER|true
04:30:52.0 (138481553)|SYSTEM_MODE_ENTER|true
04:30:52.0 (138545731)|SYSTEM_MODE_ENTER|true
04:30:52.0 (138936239)|SYSTEM_MODE_ENTER|true
04:30:52.0 (139025672)|SYSTEM_MODE_ENTER|true
04:30:52.0 (139551697)|VF_SERIALIZE_VIEWSTATE_BEGIN|066f0000000Wtdk
04:30:52.0 (148734149)|VF_SERIALIZE_VIEWSTATE_END
04:30:52.0 (151627957)|CODE_UNIT_STARTED|[EXTERNAL]|Generate Metadata
04:30:52.0 (152857405)|CODE_UNIT_FINISHED|Generate Metadata
04:30:52.188 (188462708)|CUMULATIVE_LIMIT_USAGE
04:30:52.188 (188462708)|LIMIT_USAGE_FOR_NS|(default)|
  Number of SOQL queries: 0 out of 100
  Number of query rows: 0 out of 50000
  Number of SOSL queries: 0 out of 20
  Number of DML statements: 0 out of 150
  Number of DML rows: 0 out of 10000
  Maximum CPU time: 0 out of 10000
  Maximum heap size: 0 out of 6000000
  Number of callouts: 0 out of 100
  Number of Email Invocations: 0 out of 10
  Number of future calls: 0 out of 50
  Number of queueable jobs added to the queue: 0 out of 50
  Number of Mobile Apex push calls: 0 out of 10

04:30:52.188 (188462708)|CUMULATIVE_LIMIT_USAGE_END

04:30:52.0 (188522500)|CODE_UNIT_FINISHED|VF: /apex/NewInvoiceAdjustment
04:30:52.0 (189504852)|EXECUTION_FINISHED
