45.0 APEX_CODE,DEBUG;APEX_PROFILING,INFO;CALLOUT,INFO;DB,INFO;NBA,INFO;SYSTEM,DEBUG;VALIDATION,INFO;VISUALFORCE,INFO;WAVE,INFO;WORKFLOW,NONE
01:51:19.0 (467346)|EXECUTION_STARTED
01:51:19.0 (512880)|CODE_UNIT_STARTED|[EXTERNAL]|VisualForce View State
01:51:19.0 (8141687)|CODE_UNIT_FINISHED|VisualForce View State
01:51:19.0 (9209147)|EXECUTION_FINISHED
01:51:19.821 (821964230)|VF_SERIALIZE_VIEWSTATE_BEGIN|
01:51:19.821 (826826930)|VF_SERIALIZE_VIEWSTATE_END
01:51:19.839 (839143755)|CUMULATIVE_LIMIT_USAGE
01:51:19.839 (839143755)|LIMIT_USAGE_FOR_NS|(default)|
  Number of SOQL queries: 0 out of 100
  Number of query rows: 0 out of 50000
  Number of SOSL queries: 0 out of 20
  Number of DML statements: 0 out of 150
  Number of DML rows: 0 out of 10000
  Maximum CPU time: 0 out of 10000
  Maximum heap size: 0 out of 6000000
  Number of callouts: 0 out of 100
  Number of Email Invocations: 0 out of 10
  Number of future calls: 0 out of 50
  Number of queueable jobs added to the queue: 0 out of 50
  Number of Mobile Apex push calls: 0 out of 10

01:51:19.839 (839143755)|CUMULATIVE_LIMIT_USAGE_END

