45.0 APEX_CODE,DEBUG;APEX_PROFILING,INFO;CALLOUT,INFO;DB,INFO;NBA,INFO;SYSTEM,DEBUG;VALIDATION,INFO;VISUALFORCE,INFO;WAVE,INFO;WORKFLOW,NONE
04:59:59.0 (160371)|USER_INFO|[EXTERNAL]|0051N000006IqOb|developer@fastslowmotion.com.partial|(GMT-05:00) Central Daylight Time (America/Chicago)|GMT-05:00
04:59:59.0 (230768)|EXECUTION_STARTED
04:59:59.0 (247845)|CODE_UNIT_STARTED|[EXTERNAL]|066f0000000Wtdk|VFRemote: NewInvoiceAdjustmentController invoke(fetchInvoiceAdjustments)
04:59:59.0 (280813)|SYSTEM_MODE_ENTER|true
04:59:59.0 (5487104)|SOQL_EXECUTE_BEGIN|[30]|Aggregations:0|SELECT Id, Default_Product__c FROM Account WHERE Id = :tmpVar1 LIMIT 1
04:59:59.0 (10679138)|SOQL_EXECUTE_END|[30]|Rows:1
04:59:59.0 (12939419)|SOQL_EXECUTE_BEGIN|[66]|Aggregations:0| SELECT Gross_Monthly_Total_Existing__c, Gross_Monthly_Total_New__c, Id, Member_Services_Revenue__c,  Liberty_Rx_Total__c, Invoice_Date__c, Name  FROM Invoice__c  
04:59:59.0 (17982735)|SOQL_EXECUTE_END|[66]|Rows:1
04:59:59.0 (21434834)|SOQL_EXECUTE_BEGIN|[71]|Aggregations:0| SELECT Id, Invoice__r.Name, Description_of_Change__c, Date_Change_Requested__c, Invoice__c,  MCS_Bucket__c, Amount__c  FROM Invoice_Adjustment__c  WHERE Employer_Account__c = :accountId AND (Invoice_Period__c = :invoiceDateVal  OR  CALENDAR_MONTH(Invoice_Period__c) = :invoicePreviousMonth)
04:59:59.0 (35171281)|SOQL_EXECUTE_END|[71]|Rows:4
04:59:59.0 (37094330)|CODE_UNIT_FINISHED|VFRemote: NewInvoiceAdjustmentController invoke(fetchInvoiceAdjustments)
04:59:59.0 (38546343)|EXECUTION_FINISHED
