45.0 APEX_CODE,DEBUG;APEX_PROFILING,INFO;CALLOUT,INFO;DB,INFO;NBA,INFO;SYSTEM,DEBUG;VALIDATION,INFO;VISUALFORCE,INFO;WAVE,INFO;WORKFLOW,NONE
02:25:57.0 (150347)|USER_INFO|[EXTERNAL]|0051N000006IqOb|developer@fastslowmotion.com.partial|(GMT-05:00) Central Daylight Time (America/Chicago)|GMT-05:00
02:25:57.0 (186850)|EXECUTION_STARTED
02:25:57.0 (192140)|CODE_UNIT_STARTED|[EXTERNAL]|Aura
02:25:57.0 (2389176)|CODE_UNIT_STARTED|[EXTERNAL]|01pf0000001PRwy|HorizonApplicationController.getCurrenBankDataUserRec(String)
02:25:57.0 (70134579)|SOQL_EXECUTE_BEGIN|[38]|Aggregations:0|SELECT  id, ownerid, isdeleted, name, createddate, createdbyid, lastmodifieddate, lastmodifiedbyid, systemmodstamp, lastvieweddate, lastreferenceddate, connectionreceivedid, connectionsentid, physical_address__c, date_of_birth__c, social_security_number__c, telephone_number__c, occupation__c, email__c, primary_id_number__c, expiration_date__c, passport_number__c, country_of_issuance__c, bankdata__c, controlling_manager__c, controlling_manager_ssn__c, is_benificial_owner__c, beneficial_owner1__c, beneficial_owner2__c, beneficial_owner3__c, beneficial_owner4__c, beneficial_owner1_ssn__c, beneficial_owner2_ssn__c, beneficial_owner3_ssn__c, beneficial_owner4_ssn__c, signer_or_benificial_name__c, authorized_signature__c, authorized_signature_date__c, re_certification_date__c, bank_employee__c, is_signer__c, beneficial_owner_ssn__c, is_signer_or_beneficial_owner__c, is_u_s_citizen__c, mobile_number__c, tax_id_number__c, business_s_articles_of_formation__c, issuing_state__c, is_business_registered_state_know__c FROM Bank_Data_Users__c WHERE Id =: recordIdStr LIMIT 1
02:25:57.0 (78439555)|SOQL_EXECUTE_END|[38]|Rows:1
02:25:57.78 (78790623)|CUMULATIVE_LIMIT_USAGE
02:25:57.78 (78790623)|LIMIT_USAGE_FOR_NS|(default)|
  Number of SOQL queries: 1 out of 100
  Number of query rows: 1 out of 50000
  Number of SOSL queries: 0 out of 20
  Number of DML statements: 0 out of 150
  Number of DML rows: 0 out of 10000
  Maximum CPU time: 0 out of 10000
  Maximum heap size: 0 out of 6000000
  Number of callouts: 0 out of 100
  Number of Email Invocations: 0 out of 10
  Number of future calls: 0 out of 50
  Number of queueable jobs added to the queue: 0 out of 50
  Number of Mobile Apex push calls: 0 out of 10

02:25:57.78 (78790623)|CUMULATIVE_LIMIT_USAGE_END

02:25:57.0 (78853345)|CODE_UNIT_FINISHED|HorizonApplicationController.getCurrenBankDataUserRec(String)
02:25:57.0 (79540959)|CODE_UNIT_FINISHED|Aura
02:25:57.0 (80673974)|EXECUTION_FINISHED
02:25:57.84 (84009154)|USER_INFO|[EXTERNAL]|0051N000006IqOb|developer@fastslowmotion.com.partial|(GMT-05:00) Central Daylight Time (America/Chicago)|GMT-05:00
02:25:57.84 (84028134)|EXECUTION_STARTED
02:25:57.84 (84031634)|CODE_UNIT_STARTED|[EXTERNAL]|Aura
02:25:57.84 (85743077)|CODE_UNIT_STARTED|[EXTERNAL]|01pf0000001PRwy|HorizonApplicationController.getCurrenBankDataUserRec(String)
02:25:57.84 (106426592)|SOQL_EXECUTE_BEGIN|[38]|Aggregations:0|SELECT  id, ownerid, isdeleted, name, createddate, createdbyid, lastmodifieddate, lastmodifiedbyid, systemmodstamp, lastvieweddate, lastreferenceddate, connectionreceivedid, connectionsentid, physical_address__c, date_of_birth__c, social_security_number__c, telephone_number__c, occupation__c, email__c, primary_id_number__c, expiration_date__c, passport_number__c, country_of_issuance__c, bankdata__c, controlling_manager__c, controlling_manager_ssn__c, is_benificial_owner__c, beneficial_owner1__c, beneficial_owner2__c, beneficial_owner3__c, beneficial_owner4__c, beneficial_owner1_ssn__c, beneficial_owner2_ssn__c, beneficial_owner3_ssn__c, beneficial_owner4_ssn__c, signer_or_benificial_name__c, authorized_signature__c, authorized_signature_date__c, re_certification_date__c, bank_employee__c, is_signer__c, beneficial_owner_ssn__c, is_signer_or_beneficial_owner__c, is_u_s_citizen__c, mobile_number__c, tax_id_number__c, business_s_articles_of_formation__c, issuing_state__c, is_business_registered_state_know__c FROM Bank_Data_Users__c WHERE Id =: recordIdStr LIMIT 1
02:25:57.84 (113861455)|SOQL_EXECUTE_END|[38]|Rows:1
02:25:57.114 (114006187)|CUMULATIVE_LIMIT_USAGE
02:25:57.114 (114006187)|LIMIT_USAGE_FOR_NS|(default)|
  Number of SOQL queries: 2 out of 100
  Number of query rows: 2 out of 50000
  Number of SOSL queries: 0 out of 20
  Number of DML statements: 0 out of 150
  Number of DML rows: 0 out of 10000
  Maximum CPU time: 0 out of 10000
  Maximum heap size: 0 out of 6000000
  Number of callouts: 0 out of 100
  Number of Email Invocations: 0 out of 10
  Number of future calls: 0 out of 50
  Number of queueable jobs added to the queue: 0 out of 50
  Number of Mobile Apex push calls: 0 out of 10

02:25:57.114 (114006187)|CUMULATIVE_LIMIT_USAGE_END

02:25:57.84 (114049975)|CODE_UNIT_FINISHED|HorizonApplicationController.getCurrenBankDataUserRec(String)
02:25:57.84 (114731736)|CODE_UNIT_FINISHED|Aura
02:25:57.84 (115821472)|EXECUTION_FINISHED
