45.0 APEX_CODE,DEBUG;APEX_PROFILING,INFO;CALLOUT,INFO;DB,INFO;NBA,INFO;SYSTEM,DEBUG;VALIDATION,INFO;VISUALFORCE,INFO;WAVE,INFO;WORKFLOW,NONE
02:05:14.0 (202742)|USER_INFO|[EXTERNAL]|0051N000006IqOb|developer@fastslowmotion.com.partial|(GMT-05:00) Central Daylight Time (America/Chicago)|GMT-05:00
02:05:14.0 (245330)|EXECUTION_STARTED
02:05:14.0 (250934)|CODE_UNIT_STARTED|[EXTERNAL]|VisualForce View State
02:05:14.0 (5626372)|CODE_UNIT_FINISHED|VisualForce View State
02:05:14.0 (6911031)|EXECUTION_FINISHED
