45.0 APEX_CODE,DEBUG;APEX_PROFILING,INFO;CALLOUT,INFO;DB,INFO;NBA,INFO;SYSTEM,DEBUG;VALIDATION,INFO;VISUALFORCE,INFO;WAVE,INFO;WORKFLOW,NONE
03:48:33.0 (550791)|USER_INFO|[EXTERNAL]|0051N000006IqOb|developer@fastslowmotion.com.partial|(GMT-05:00) Central Daylight Time (America/Chicago)|GMT-05:00
03:48:33.0 (611697)|EXECUTION_STARTED
03:48:33.0 (626342)|CODE_UNIT_STARTED|[EXTERNAL]|066f0000000Wtdk|VF: /apex/NewInvoiceAdjustment
03:48:33.0 (1201095)|VF_DESERIALIZE_VIEWSTATE_BEGIN|066f0000000Wtdk
03:48:33.0 (9709933)|VF_DESERIALIZE_VIEWSTATE_END
03:48:33.0 (13213044)|SYSTEM_MODE_ENTER|true
03:48:33.0 (13546458)|SYSTEM_MODE_ENTER|true
03:48:33.0 (13651331)|SYSTEM_MODE_ENTER|true
03:48:33.0 (13701067)|SYSTEM_MODE_ENTER|true
03:48:33.0 (14140191)|SYSTEM_MODE_ENTER|true
03:48:33.0 (14301921)|SYSTEM_MODE_ENTER|true
03:48:33.0 (14448870)|SYSTEM_MODE_ENTER|true
03:48:33.0 (14511389)|SYSTEM_MODE_ENTER|true
03:48:33.0 (14566214)|SYSTEM_MODE_ENTER|true
03:48:33.0 (14602618)|SYSTEM_MODE_ENTER|true
03:48:33.0 (14806117)|SYSTEM_MODE_ENTER|true
03:48:33.0 (14845609)|SYSTEM_MODE_ENTER|true
03:48:33.0 (14876127)|SYSTEM_MODE_ENTER|true
03:48:33.0 (14954984)|SYSTEM_MODE_ENTER|true
03:48:33.0 (15013869)|SYSTEM_MODE_ENTER|true
03:48:33.0 (15065700)|SYSTEM_MODE_ENTER|true
03:48:33.0 (15109011)|SYSTEM_MODE_ENTER|true
03:48:33.0 (15247246)|SYSTEM_MODE_ENTER|true
03:48:33.0 (16164269)|SYSTEM_MODE_ENTER|true
03:48:33.0 (22259724)|SYSTEM_MODE_ENTER|true
03:48:33.0 (22332952)|SYSTEM_MODE_ENTER|true
03:48:33.0 (22377238)|SYSTEM_MODE_ENTER|true
03:48:33.0 (22507509)|SYSTEM_MODE_ENTER|true
03:48:33.0 (22596180)|SYSTEM_MODE_ENTER|true
03:48:33.0 (22647604)|SYSTEM_MODE_ENTER|true
03:48:33.0 (22684279)|SYSTEM_MODE_ENTER|true
03:48:33.0 (22732599)|SYSTEM_MODE_ENTER|true
03:48:33.0 (22775394)|SYSTEM_MODE_ENTER|true
03:48:33.0 (27257063)|SOQL_EXECUTE_BEGIN|[118]|Aggregations:0|SELECT Name,Type, Id FROM Account 
03:48:33.0 (31844093)|SOQL_EXECUTE_END|[118]|Rows:1
03:48:33.0 (34223254)|VF_SERIALIZE_VIEWSTATE_BEGIN|066f0000000Wtdk
03:48:33.0 (47771558)|VF_SERIALIZE_VIEWSTATE_END
03:48:33.0 (62443227)|CODE_UNIT_STARTED|[EXTERNAL]|Generate Metadata
03:48:33.0 (71655257)|CODE_UNIT_FINISHED|Generate Metadata
03:48:33.0 (109042837)|SYSTEM_MODE_ENTER|true
03:48:33.110 (110630509)|CUMULATIVE_LIMIT_USAGE
03:48:33.110 (110630509)|LIMIT_USAGE_FOR_NS|(default)|
  Number of SOQL queries: 1 out of 100
  Number of query rows: 1 out of 50000
  Number of SOSL queries: 0 out of 20
  Number of DML statements: 0 out of 150
  Number of DML rows: 0 out of 10000
  Maximum CPU time: 0 out of 10000
  Maximum heap size: 0 out of 6000000
  Number of callouts: 0 out of 100
  Number of Email Invocations: 0 out of 10
  Number of future calls: 0 out of 50
  Number of queueable jobs added to the queue: 0 out of 50
  Number of Mobile Apex push calls: 0 out of 10

03:48:33.110 (110630509)|CUMULATIVE_LIMIT_USAGE_END

03:48:33.0 (110704040)|CODE_UNIT_FINISHED|VF: /apex/NewInvoiceAdjustment
03:48:33.0 (112475926)|EXECUTION_FINISHED
