45.0 APEX_CODE,DEBUG;APEX_PROFILING,INFO;CALLOUT,INFO;DB,INFO;NBA,INFO;SYSTEM,DEBUG;VALIDATION,INFO;VISUALFORCE,INFO;WAVE,INFO;WORKFLOW,NONE
03:23:14.0 (384837)|USER_INFO|[EXTERNAL]|0051N000006IqOb|developer@fastslowmotion.com.partial|(GMT-05:00) Central Daylight Time (America/Chicago)|GMT-05:00
03:23:14.0 (455465)|EXECUTION_STARTED
03:23:14.0 (460204)|CODE_UNIT_STARTED|[EXTERNAL]|VisualForce View State
03:23:14.0 (12072614)|CODE_UNIT_FINISHED|VisualForce View State
03:23:14.0 (13338622)|EXECUTION_FINISHED
03:23:14.32 (32042150)|USER_INFO|[EXTERNAL]|0051N000006IqOb|developer@fastslowmotion.com.partial|(GMT-05:00) Central Daylight Time (America/Chicago)|GMT-05:00
03:23:14.32 (32074143)|EXECUTION_STARTED
03:23:14.32 (32082519)|CODE_UNIT_STARTED|[EXTERNAL]|VF: /apex/editApexPage.apexp
03:23:14.32 (46727115)|CODE_UNIT_STARTED|[EXTERNAL]|VF Controller Save
03:23:14.32 (46755518)|SYSTEM_MODE_ENTER|false
03:23:14.32 (656063853)|CODE_UNIT_FINISHED|VF Controller Save
03:23:14.675 (675017309)|CUMULATIVE_LIMIT_USAGE
03:23:14.675 (675017309)|LIMIT_USAGE_FOR_NS|(default)|
  Number of SOQL queries: 0 out of 100
  Number of query rows: 0 out of 50000
  Number of SOSL queries: 0 out of 20
  Number of DML statements: 0 out of 150
  Number of DML rows: 0 out of 10000
  Maximum CPU time: 0 out of 10000
  Maximum heap size: 0 out of 6000000
  Number of callouts: 0 out of 100
  Number of Email Invocations: 0 out of 10
  Number of future calls: 0 out of 50
  Number of queueable jobs added to the queue: 0 out of 50
  Number of Mobile Apex push calls: 0 out of 10

03:23:14.675 (675017309)|CUMULATIVE_LIMIT_USAGE_END

03:23:14.32 (675118689)|CODE_UNIT_FINISHED|VF: /apex/editApexPage.apexp
03:23:14.32 (676412486)|EXECUTION_FINISHED
