45.0 APEX_CODE,DEBUG;APEX_PROFILING,INFO;CALLOUT,INFO;DB,INFO;NBA,INFO;SYSTEM,DEBUG;VALIDATION,INFO;VISUALFORCE,INFO;WAVE,INFO;WORKFLOW,NONE
05:23:03.0 (544733)|USER_INFO|[EXTERNAL]|0051N000006IqOb|developer@fastslowmotion.com.partial|(GMT-05:00) Central Daylight Time (America/Chicago)|GMT-05:00
05:23:03.0 (623576)|EXECUTION_STARTED
05:23:03.0 (632798)|CODE_UNIT_STARTED|[EXTERNAL]|066f0000000Wtdk|VF: /apex/NewInvoiceAdjustment
05:23:03.0 (20103550)|SYSTEM_MODE_ENTER|true
05:23:03.0 (20767648)|SYSTEM_MODE_ENTER|true
05:23:03.0 (21525001)|SYSTEM_MODE_ENTER|true
05:23:03.0 (21611289)|SYSTEM_MODE_ENTER|true
05:23:03.0 (21657920)|SYSTEM_MODE_ENTER|true
05:23:03.0 (21877468)|SYSTEM_MODE_ENTER|true
05:23:03.0 (170879558)|SYSTEM_MODE_ENTER|true
05:23:03.0 (276283964)|SYSTEM_MODE_ENTER|true
05:23:03.0 (276868851)|SYSTEM_MODE_ENTER|true
05:23:03.0 (276985231)|SYSTEM_MODE_ENTER|true
05:23:03.0 (277079804)|SYSTEM_MODE_ENTER|true
05:23:03.0 (277144438)|SYSTEM_MODE_ENTER|true
05:23:03.0 (278464495)|SYSTEM_MODE_ENTER|true
05:23:03.0 (278521528)|SYSTEM_MODE_ENTER|true
05:23:03.0 (278558628)|SYSTEM_MODE_ENTER|true
05:23:03.0 (278656855)|SYSTEM_MODE_ENTER|true
05:23:03.0 (278733776)|SYSTEM_MODE_ENTER|true
05:23:03.0 (278793584)|SYSTEM_MODE_ENTER|true
05:23:03.0 (278843728)|SYSTEM_MODE_ENTER|true
05:23:03.0 (278995912)|SYSTEM_MODE_ENTER|true
05:23:03.0 (279704612)|SYSTEM_MODE_ENTER|true
05:23:03.0 (279783464)|SYSTEM_MODE_ENTER|true
05:23:03.0 (280477865)|SYSTEM_MODE_ENTER|true
05:23:03.0 (280605813)|SYSTEM_MODE_ENTER|true
05:23:03.0 (281473190)|VF_SERIALIZE_VIEWSTATE_BEGIN|066f0000000Wtdk
05:23:03.0 (302660318)|VF_SERIALIZE_VIEWSTATE_END
05:23:03.0 (305653575)|CODE_UNIT_STARTED|[EXTERNAL]|Generate Metadata
05:23:03.0 (308477078)|CODE_UNIT_FINISHED|Generate Metadata
05:23:03.355 (355089460)|CUMULATIVE_LIMIT_USAGE
05:23:03.355 (355089460)|LIMIT_USAGE_FOR_NS|(default)|
  Number of SOQL queries: 0 out of 100
  Number of query rows: 0 out of 50000
  Number of SOSL queries: 0 out of 20
  Number of DML statements: 0 out of 150
  Number of DML rows: 0 out of 10000
  Maximum CPU time: 0 out of 10000
  Maximum heap size: 0 out of 6000000
  Number of callouts: 0 out of 100
  Number of Email Invocations: 0 out of 10
  Number of future calls: 0 out of 50
  Number of queueable jobs added to the queue: 0 out of 50
  Number of Mobile Apex push calls: 0 out of 10

05:23:03.355 (355089460)|CUMULATIVE_LIMIT_USAGE_END

05:23:03.0 (355194420)|CODE_UNIT_FINISHED|VF: /apex/NewInvoiceAdjustment
05:23:03.0 (356861000)|EXECUTION_FINISHED
