45.0 APEX_CODE,DEBUG;APEX_PROFILING,INFO;CALLOUT,INFO;DB,INFO;NBA,INFO;SYSTEM,DEBUG;VALIDATION,INFO;VISUALFORCE,INFO;WAVE,INFO;WORKFLOW,NONE
05:48:26.0 (758354)|USER_INFO|[EXTERNAL]|0051N000006IqOb|developer@fastslowmotion.com.partial|(GMT-05:00) Central Daylight Time (America/Chicago)|GMT-05:00
05:48:26.0 (882150)|EXECUTION_STARTED
05:48:26.0 (896718)|CODE_UNIT_STARTED|[EXTERNAL]|066f0000000Wtdk|VF: /apex/NewInvoiceAdjustment
05:48:26.0 (22200827)|SYSTEM_MODE_ENTER|true
05:48:26.0 (23124537)|SYSTEM_MODE_ENTER|true
05:48:26.0 (23815777)|SYSTEM_MODE_ENTER|true
05:48:26.0 (23946295)|SYSTEM_MODE_ENTER|true
05:48:26.0 (24037965)|SYSTEM_MODE_ENTER|true
05:48:26.0 (24383054)|SYSTEM_MODE_ENTER|true
05:48:26.0 (218417963)|SYSTEM_MODE_ENTER|true
05:48:26.0 (219639403)|SYSTEM_MODE_ENTER|true
05:48:26.0 (220205127)|SYSTEM_MODE_ENTER|true
05:48:26.0 (220284755)|SYSTEM_MODE_ENTER|true
05:48:26.0 (220379954)|SYSTEM_MODE_ENTER|true
05:48:26.0 (220445086)|SYSTEM_MODE_ENTER|true
05:48:26.0 (221709632)|SYSTEM_MODE_ENTER|true
05:48:26.0 (221780708)|SYSTEM_MODE_ENTER|true
05:48:26.0 (221829576)|SYSTEM_MODE_ENTER|true
05:48:26.0 (221956309)|SYSTEM_MODE_ENTER|true
05:48:26.0 (222056834)|SYSTEM_MODE_ENTER|true
05:48:26.0 (222130027)|SYSTEM_MODE_ENTER|true
05:48:26.0 (222194925)|SYSTEM_MODE_ENTER|true
05:48:26.0 (222373530)|SYSTEM_MODE_ENTER|true
05:48:26.0 (222996239)|SYSTEM_MODE_ENTER|true
05:48:26.0 (223105747)|SYSTEM_MODE_ENTER|true
05:48:26.0 (223880144)|SYSTEM_MODE_ENTER|true
05:48:26.0 (224045134)|SYSTEM_MODE_ENTER|true
05:48:26.0 (224751106)|VF_SERIALIZE_VIEWSTATE_BEGIN|066f0000000Wtdk
05:48:26.0 (244415695)|VF_SERIALIZE_VIEWSTATE_END
05:48:26.0 (248068789)|CODE_UNIT_STARTED|[EXTERNAL]|Generate Metadata
05:48:26.0 (250408214)|CODE_UNIT_FINISHED|Generate Metadata
05:48:26.291 (291080963)|CUMULATIVE_LIMIT_USAGE
05:48:26.291 (291080963)|LIMIT_USAGE_FOR_NS|(default)|
  Number of SOQL queries: 0 out of 100
  Number of query rows: 0 out of 50000
  Number of SOSL queries: 0 out of 20
  Number of DML statements: 0 out of 150
  Number of DML rows: 0 out of 10000
  Maximum CPU time: 0 out of 10000
  Maximum heap size: 0 out of 6000000
  Number of callouts: 0 out of 100
  Number of Email Invocations: 0 out of 10
  Number of future calls: 0 out of 50
  Number of queueable jobs added to the queue: 0 out of 50
  Number of Mobile Apex push calls: 0 out of 10

05:48:26.291 (291080963)|CUMULATIVE_LIMIT_USAGE_END

05:48:26.0 (291172327)|CODE_UNIT_FINISHED|VF: /apex/NewInvoiceAdjustment
05:48:26.0 (292209981)|EXECUTION_FINISHED
