45.0 APEX_CODE,DEBUG;APEX_PROFILING,INFO;CALLOUT,INFO;DB,INFO;NBA,INFO;SYSTEM,DEBUG;VALIDATION,INFO;VISUALFORCE,INFO;WAVE,INFO;WORKFLOW,NONE
08:01:51.0 (363127)|USER_INFO|[EXTERNAL]|0051N000006IqOb|developer@fastslowmotion.com.partial|(GMT-05:00) Central Daylight Time (America/Chicago)|GMT-05:00
08:01:51.0 (395040)|EXECUTION_STARTED
08:01:51.0 (399360)|CODE_UNIT_STARTED|[EXTERNAL]|066f0000000Wtdk|VF: /apex/NewInvoiceAdjustment
08:01:51.0 (2174470)|SYSTEM_MODE_ENTER|true
08:01:51.0 (2584004)|SYSTEM_MODE_ENTER|true
08:01:51.0 (2935395)|SYSTEM_MODE_ENTER|true
08:01:51.0 (3010102)|SYSTEM_MODE_ENTER|true
08:01:51.0 (3059500)|SYSTEM_MODE_ENTER|true
08:01:51.0 (3272857)|SYSTEM_MODE_ENTER|true
08:01:51.0 (148106751)|SYSTEM_MODE_ENTER|true
08:01:51.0 (148292013)|SYSTEM_MODE_ENTER|true
08:01:51.0 (148689611)|SYSTEM_MODE_ENTER|true
08:01:51.0 (148753119)|SYSTEM_MODE_ENTER|true
08:01:51.0 (148827132)|SYSTEM_MODE_ENTER|true
08:01:51.0 (148879502)|SYSTEM_MODE_ENTER|true
08:01:51.0 (149830980)|SYSTEM_MODE_ENTER|true
08:01:51.0 (149893335)|SYSTEM_MODE_ENTER|true
08:01:51.0 (149935180)|SYSTEM_MODE_ENTER|true
08:01:51.0 (150040719)|SYSTEM_MODE_ENTER|true
08:01:51.0 (150122646)|SYSTEM_MODE_ENTER|true
08:01:51.0 (150188918)|SYSTEM_MODE_ENTER|true
08:01:51.0 (150245948)|SYSTEM_MODE_ENTER|true
08:01:51.0 (150385989)|SYSTEM_MODE_ENTER|true
08:01:51.0 (150923429)|SYSTEM_MODE_ENTER|true
08:01:51.0 (150995375)|SYSTEM_MODE_ENTER|true
08:01:51.0 (151392047)|SYSTEM_MODE_ENTER|true
08:01:51.0 (151484149)|SYSTEM_MODE_ENTER|true
08:01:51.0 (152000086)|VF_SERIALIZE_VIEWSTATE_BEGIN|066f0000000Wtdk
08:01:51.0 (162037787)|VF_SERIALIZE_VIEWSTATE_END
08:01:51.0 (165607708)|CODE_UNIT_STARTED|[EXTERNAL]|Generate Metadata
08:01:51.0 (167370987)|CODE_UNIT_FINISHED|Generate Metadata
08:01:51.207 (207489860)|CUMULATIVE_LIMIT_USAGE
08:01:51.207 (207489860)|LIMIT_USAGE_FOR_NS|(default)|
  Number of SOQL queries: 0 out of 100
  Number of query rows: 0 out of 50000
  Number of SOSL queries: 0 out of 20
  Number of DML statements: 0 out of 150
  Number of DML rows: 0 out of 10000
  Maximum CPU time: 0 out of 10000
  Maximum heap size: 0 out of 6000000
  Number of callouts: 0 out of 100
  Number of Email Invocations: 0 out of 10
  Number of future calls: 0 out of 50
  Number of queueable jobs added to the queue: 0 out of 50
  Number of Mobile Apex push calls: 0 out of 10

08:01:51.207 (207489860)|CUMULATIVE_LIMIT_USAGE_END

08:01:51.0 (207542735)|CODE_UNIT_FINISHED|VF: /apex/NewInvoiceAdjustment
08:01:51.0 (208642851)|EXECUTION_FINISHED
