45.0 APEX_CODE,DEBUG;APEX_PROFILING,INFO;CALLOUT,INFO;DB,INFO;NBA,INFO;SYSTEM,DEBUG;VALIDATION,INFO;VISUALFORCE,INFO;WAVE,INFO;WORKFLOW,NONE
02:59:55.0 (326778)|USER_INFO|[EXTERNAL]|0051N000006IqOb|developer@fastslowmotion.com.partial|(GMT-05:00) Central Daylight Time (America/Chicago)|GMT-05:00
02:59:55.0 (411272)|EXECUTION_STARTED
02:59:55.0 (422777)|CODE_UNIT_STARTED|[EXTERNAL]|Aura
02:59:55.0 (2172036)|CODE_UNIT_STARTED|[EXTERNAL]|01pf0000001PRwy|HorizonApplicationController.getUserInformation()
02:59:55.0 (3139774)|SOQL_EXECUTE_BEGIN|[16]|Aggregations:0|SELECT Id, Name, TimeZoneSidKey, Username, Alias, Country, Email, FirstName, LastName, IsActive, IsPortalEnabled FROM User WHERE Id = :tmpVar1
02:59:55.0 (6170181)|SOQL_EXECUTE_END|[16]|Rows:1
02:59:55.0 (6438171)|USER_DEBUG|[19]|DEBUG|userInfo :: User:{Id=0051N000006IqObQAK, Name=fsm devteam, TimeZoneSidKey=America/Chicago, Username=developer@fastslowmotion.com.partial, Alias=fdevt, Email=developer@fastslowmotion.com, FirstName=fsm, LastName=devteam, IsActive=true, IsPortalEnabled=false}
02:59:55.0 (6538164)|USER_DEBUG|[21]|DEBUG|userInfo :: User:{Id=0051N000006IqObQAK, Name=fsm devteam, TimeZoneSidKey=America/Chicago, Username=developer@fastslowmotion.com.partial, Alias=fdevt, Email=developer@fastslowmotion.com, FirstName=fsm, LastName=devteam, IsActive=true, IsPortalEnabled=false}
02:59:55.0 (6964964)|USER_DEBUG|[13]|DEBUG|Return Result :: {"messageStr":"Success","isSuccess":true,"data":{"attributes":{"type":"User","url":"/services/data/v45.0/sobjects/User/0051N000006IqObQAK"},"Id":"0051N000006IqObQAK","Name":"fsm devteam","TimeZoneSidKey":"America/Chicago","Username":"developer@fastslowmotion.com.partial","Alias":"fdevt","Email":"developer@fastslowmotion.com","FirstName":"fsm","LastName":"devteam","IsActive":true,"IsPortalEnabled":false}}
02:59:55.0 (7217678)|SOQL_EXECUTE_BEGIN|[16]|Aggregations:0|SELECT Id, Name, TimeZoneSidKey, Username, Alias, Country, Email, FirstName, LastName, IsActive, IsPortalEnabled FROM User WHERE Id = :tmpVar1
02:59:55.0 (9369376)|SOQL_EXECUTE_END|[16]|Rows:1
02:59:55.0 (9495654)|USER_DEBUG|[19]|DEBUG|userInfo :: User:{Id=0051N000006IqObQAK, Name=fsm devteam, TimeZoneSidKey=America/Chicago, Username=developer@fastslowmotion.com.partial, Alias=fdevt, Email=developer@fastslowmotion.com, FirstName=fsm, LastName=devteam, IsActive=true, IsPortalEnabled=false}
02:59:55.0 (9549531)|USER_DEBUG|[21]|DEBUG|userInfo :: User:{Id=0051N000006IqObQAK, Name=fsm devteam, TimeZoneSidKey=America/Chicago, Username=developer@fastslowmotion.com.partial, Alias=fdevt, Email=developer@fastslowmotion.com, FirstName=fsm, LastName=devteam, IsActive=true, IsPortalEnabled=false}
02:59:55.9 (9607537)|CUMULATIVE_LIMIT_USAGE
02:59:55.9 (9607537)|LIMIT_USAGE_FOR_NS|(default)|
  Number of SOQL queries: 2 out of 100
  Number of query rows: 2 out of 50000
  Number of SOSL queries: 0 out of 20
  Number of DML statements: 0 out of 150
  Number of DML rows: 0 out of 10000
  Maximum CPU time: 0 out of 10000
  Maximum heap size: 0 out of 6000000
  Number of callouts: 0 out of 100
  Number of Email Invocations: 0 out of 10
  Number of future calls: 0 out of 50
  Number of queueable jobs added to the queue: 0 out of 50
  Number of Mobile Apex push calls: 0 out of 10

02:59:55.9 (9607537)|CUMULATIVE_LIMIT_USAGE_END

02:59:55.0 (9667256)|CODE_UNIT_FINISHED|HorizonApplicationController.getUserInformation()
02:59:55.0 (10467708)|CODE_UNIT_FINISHED|Aura
02:59:55.0 (11495575)|EXECUTION_FINISHED
