45.0 APEX_CODE,DEBUG;APEX_PROFILING,INFO;CALLOUT,INFO;DB,INFO;NBA,INFO;SYSTEM,DEBUG;VALIDATION,INFO;VISUALFORCE,INFO;WAVE,INFO;WORKFLOW,NONE
02:44:24.0 (419548)|USER_INFO|[EXTERNAL]|0051N000006IqOb|developer@fastslowmotion.com.partial|(GMT-05:00) Central Daylight Time (America/Chicago)|GMT-05:00
02:44:24.0 (482809)|EXECUTION_STARTED
02:44:24.0 (488909)|CODE_UNIT_STARTED|[EXTERNAL]|066f0000000Wtdk|VF: /apex/NewInvoiceAdjustment
02:44:24.0 (16110307)|SYSTEM_MODE_ENTER|true
02:44:24.0 (16606831)|SYSTEM_MODE_ENTER|true
02:44:24.0 (17016927)|SYSTEM_MODE_ENTER|true
02:44:24.0 (17090926)|SYSTEM_MODE_ENTER|true
02:44:24.0 (17139361)|SYSTEM_MODE_ENTER|true
02:44:24.0 (17378091)|SYSTEM_MODE_ENTER|true
02:44:24.0 (146827180)|SYSTEM_MODE_ENTER|true
02:44:24.0 (209570280)|SYSTEM_MODE_ENTER|true
02:44:24.0 (210045609)|SYSTEM_MODE_ENTER|true
02:44:24.0 (210119302)|SYSTEM_MODE_ENTER|true
02:44:24.0 (210221700)|SYSTEM_MODE_ENTER|true
02:44:24.0 (210276483)|SYSTEM_MODE_ENTER|true
02:44:24.0 (211351404)|SYSTEM_MODE_ENTER|true
02:44:24.0 (211410762)|SYSTEM_MODE_ENTER|true
02:44:24.0 (211449073)|SYSTEM_MODE_ENTER|true
02:44:24.0 (211552370)|SYSTEM_MODE_ENTER|true
02:44:24.0 (211634105)|SYSTEM_MODE_ENTER|true
02:44:24.0 (211693939)|SYSTEM_MODE_ENTER|true
02:44:24.0 (211747110)|SYSTEM_MODE_ENTER|true
02:44:24.0 (211890878)|SYSTEM_MODE_ENTER|true
02:44:24.0 (212472024)|SYSTEM_MODE_ENTER|true
02:44:24.0 (212542092)|SYSTEM_MODE_ENTER|true
02:44:24.0 (213268490)|SYSTEM_MODE_ENTER|true
02:44:24.0 (213364290)|SYSTEM_MODE_ENTER|true
02:44:24.0 (213933314)|VF_SERIALIZE_VIEWSTATE_BEGIN|066f0000000Wtdk
02:44:24.0 (225059731)|VF_SERIALIZE_VIEWSTATE_END
02:44:24.0 (227839471)|CODE_UNIT_STARTED|[EXTERNAL]|Generate Metadata
02:44:24.0 (229602741)|CODE_UNIT_FINISHED|Generate Metadata
02:44:24.264 (264201534)|CUMULATIVE_LIMIT_USAGE
02:44:24.264 (264201534)|LIMIT_USAGE_FOR_NS|(default)|
  Number of SOQL queries: 0 out of 100
  Number of query rows: 0 out of 50000
  Number of SOSL queries: 0 out of 20
  Number of DML statements: 0 out of 150
  Number of DML rows: 0 out of 10000
  Maximum CPU time: 0 out of 10000
  Maximum heap size: 0 out of 6000000
  Number of callouts: 0 out of 100
  Number of Email Invocations: 0 out of 10
  Number of future calls: 0 out of 50
  Number of queueable jobs added to the queue: 0 out of 50
  Number of Mobile Apex push calls: 0 out of 10

02:44:24.264 (264201534)|CUMULATIVE_LIMIT_USAGE_END

02:44:24.0 (264278156)|CODE_UNIT_FINISHED|VF: /apex/NewInvoiceAdjustment
02:44:24.0 (265392321)|EXECUTION_FINISHED
