45.0 APEX_CODE,DEBUG;APEX_PROFILING,INFO;CALLOUT,INFO;DB,INFO;NBA,INFO;SYSTEM,DEBUG;VALIDATION,INFO;VISUALFORCE,INFO;WAVE,INFO;WORKFLOW,NONE
00:31:06.0 (154511)|USER_INFO|[EXTERNAL]|0051N000006IqOb|developer@fastslowmotion.com.partial|(GMT-05:00) Central Daylight Time (America/Chicago)|GMT-05:00
00:31:06.0 (184542)|EXECUTION_STARTED
00:31:06.0 (188339)|CODE_UNIT_STARTED|[EXTERNAL]|01pf000000239wk|Refresh Dwolla Token
00:31:06.0 (12208747)|SOQL_EXECUTE_BEGIN|[6]|Aggregations:0|SELECT id, CronJobDetail.Name FROM CronTrigger WHERE id = :tmpVar1
00:31:06.0 (18581809)|SOQL_EXECUTE_END|[6]|Rows:1
00:31:06.71 (71461146)|CUMULATIVE_LIMIT_USAGE
00:31:06.71 (71461146)|LIMIT_USAGE_FOR_NS|(default)|
  Number of SOQL queries: 1 out of 100
  Number of query rows: 1 out of 50000
  Number of SOSL queries: 0 out of 20
  Number of DML statements: 1 out of 150
  Number of DML rows: 1 out of 10000
  Maximum CPU time: 0 out of 10000
  Maximum heap size: 0 out of 6000000
  Number of callouts: 0 out of 100
  Number of Email Invocations: 0 out of 10
  Number of future calls: 1 out of 50
  Number of queueable jobs added to the queue: 0 out of 50
  Number of Mobile Apex push calls: 0 out of 10

00:31:06.71 (71461146)|CUMULATIVE_LIMIT_USAGE_END

00:31:06.0 (71514016)|CODE_UNIT_FINISHED|Refresh Dwolla Token
00:31:06.0 (72559700)|EXECUTION_FINISHED
