45.0 APEX_CODE,DEBUG;APEX_PROFILING,INFO;CALLOUT,INFO;DB,INFO;NBA,INFO;SYSTEM,DEBUG;VALIDATION,INFO;VISUALFORCE,INFO;WAVE,INFO;WORKFLOW,NONE
01:26:51.0 (99598)|USER_INFO|[EXTERNAL]|0051N000006IqOb|developer@fastslowmotion.com.partial|(GMT-05:00) Central Daylight Time (America/Chicago)|GMT-05:00
01:26:51.0 (137100)|EXECUTION_STARTED
01:26:51.0 (141787)|CODE_UNIT_STARTED|[EXTERNAL]|066f0000000Wtdk|VFRemote: SLDSDynamicLookupController invoke(search)
01:26:51.0 (156493)|SYSTEM_MODE_ENTER|true
01:26:51.0 (2362826)|SOQL_EXECUTE_BEGIN|[118]|Aggregations:0|SELECT Name,Type, Id FROM Account 
01:26:51.0 (12862697)|SOQL_EXECUTE_END|[118]|Rows:2
01:26:51.0 (14017830)|CODE_UNIT_FINISHED|VFRemote: SLDSDynamicLookupController invoke(search)
01:26:51.0 (15684524)|EXECUTION_FINISHED
