45.0 APEX_CODE,DEBUG;APEX_PROFILING,INFO;CALLOUT,INFO;DB,INFO;NBA,INFO;SYSTEM,DEBUG;VALIDATION,INFO;VISUALFORCE,INFO;WAVE,INFO;WORKFLOW,NONE
07:31:01.0 (453956)|EXECUTION_STARTED
07:31:01.0 (500029)|CODE_UNIT_STARTED|[EXTERNAL]|VisualForce View State
07:31:01.0 (7852202)|CODE_UNIT_FINISHED|VisualForce View State
07:31:01.0 (9121148)|EXECUTION_FINISHED
07:31:02.106 (1106429866)|VF_PAGE_MESSAGE|Compile Error: Variable does not exist: errorList at line 160 column 25
07:31:02.106 (1259520432)|VF_SERIALIZE_VIEWSTATE_BEGIN|
07:31:02.106 (1265282125)|VF_SERIALIZE_VIEWSTATE_END
07:31:02.292 (1292601598)|CUMULATIVE_LIMIT_USAGE
07:31:02.292 (1292601598)|LIMIT_USAGE_FOR_NS|(default)|
  Number of SOQL queries: 0 out of 100
  Number of query rows: 0 out of 50000
  Number of SOSL queries: 0 out of 20
  Number of DML statements: 0 out of 150
  Number of DML rows: 0 out of 10000
  Maximum CPU time: 0 out of 10000
  Maximum heap size: 0 out of 6000000
  Number of callouts: 0 out of 100
  Number of Email Invocations: 0 out of 10
  Number of future calls: 0 out of 50
  Number of queueable jobs added to the queue: 0 out of 50
  Number of Mobile Apex push calls: 0 out of 10

07:31:02.292 (1292601598)|CUMULATIVE_LIMIT_USAGE_END

