45.0 APEX_CODE,DEBUG;APEX_PROFILING,INFO;CALLOUT,INFO;DB,INFO;NBA,INFO;SYSTEM,DEBUG;VALIDATION,INFO;VISUALFORCE,INFO;WAVE,INFO;WORKFLOW,NONE
01:24:18.0 (251171)|EXECUTION_STARTED
01:24:18.0 (294325)|CODE_UNIT_STARTED|[EXTERNAL]|VisualForce View State
01:24:18.0 (8556503)|CODE_UNIT_FINISHED|VisualForce View State
01:24:18.0 (9641798)|EXECUTION_FINISHED
01:24:19.764 (1764363654)|VF_SERIALIZE_VIEWSTATE_BEGIN|
01:24:19.764 (1769318382)|VF_SERIALIZE_VIEWSTATE_END
01:24:19.781 (1781846914)|CUMULATIVE_LIMIT_USAGE
01:24:19.781 (1781846914)|LIMIT_USAGE_FOR_NS|(default)|
  Number of SOQL queries: 0 out of 100
  Number of query rows: 0 out of 50000
  Number of SOSL queries: 0 out of 20
  Number of DML statements: 0 out of 150
  Number of DML rows: 0 out of 10000
  Maximum CPU time: 0 out of 10000
  Maximum heap size: 0 out of 6000000
  Number of callouts: 0 out of 100
  Number of Email Invocations: 0 out of 10
  Number of future calls: 0 out of 50
  Number of queueable jobs added to the queue: 0 out of 50
  Number of Mobile Apex push calls: 0 out of 10

01:24:19.781 (1781846914)|CUMULATIVE_LIMIT_USAGE_END

