44.0 APEX_CODE,DEBUG;APEX_PROFILING,INFO;CALLOUT,INFO;DB,INFO;NBA,INFO;SYSTEM,DEBUG;VALIDATION,INFO;VISUALFORCE,INFO;WAVE,INFO;WORKFLOW,NONE
09:39:54.0 (417245)|USER_INFO|[EXTERNAL]|0051N000007R2t4|sedera@sedera.force.com.partial|Greenwich Mean Time|GMTZ
09:39:54.0 (475506)|EXECUTION_STARTED
09:39:54.0 (485054)|CODE_UNIT_STARTED|[EXTERNAL]|0661N000002olRn|VF: /apex/DwollaConfirmation
09:39:54.0 (6960990)|SYSTEM_MODE_ENTER|true
09:39:54.0 (9873831)|USER_DEBUG|[19]|DEBUG|accountId :::::001f000001ICvyKAAT
09:39:54.0 (13620470)|SOQL_EXECUTE_BEGIN|[97]|Aggregations:0|SELECT Id, Is_Terms_And_Policy_Accepted__c, TermsAndPolicyAcceptedTime__c FROM Account WHERE Id = :tmpVar1
09:39:54.0 (17619719)|SOQL_EXECUTE_END|[97]|Rows:1
09:39:54.0 (17969062)|USER_DEBUG|[21]|DEBUG|account  :::::Account:{Id=001f000001ICvyKAAT, Is_Terms_And_Policy_Accepted__c=true, TermsAndPolicyAcceptedTime__c=2019-04-19 09:39:06, RecordTypeId=012o0000000GpW3AAK}
09:39:54.0 (18154529)|USER_DEBUG|[32]|DEBUG|Outif
09:39:54.19 (19110638)|SYSTEM_MODE_ENTER|true
09:39:54.19 (19275762)|SYSTEM_MODE_ENTER|true
09:39:54.20 (20530897)|SYSTEM_MODE_ENTER|true
09:39:54.24 (24194020)|SYSTEM_MODE_ENTER|true
09:39:54.24 (24479204)|SYSTEM_MODE_ENTER|true
09:39:54.0 (39574293)|VF_SERIALIZE_VIEWSTATE_BEGIN|0661N000002olRn
09:39:54.0 (43770627)|VF_SERIALIZE_VIEWSTATE_END
09:39:54.51 (51160055)|CUMULATIVE_LIMIT_USAGE
09:39:54.51 (51160055)|LIMIT_USAGE_FOR_NS|(default)|
  Number of SOQL queries: 1 out of 100
  Number of query rows: 1 out of 50000
  Number of SOSL queries: 0 out of 20
  Number of DML statements: 0 out of 150
  Number of DML rows: 0 out of 10000
  Maximum CPU time: 0 out of 10000
  Maximum heap size: 0 out of 6000000
  Number of callouts: 0 out of 100
  Number of Email Invocations: 0 out of 10
  Number of future calls: 0 out of 50
  Number of queueable jobs added to the queue: 0 out of 50
  Number of Mobile Apex push calls: 0 out of 10

09:39:54.51 (51160055)|CUMULATIVE_LIMIT_USAGE_END

09:39:54.0 (51230851)|CODE_UNIT_FINISHED|VF: /apex/DwollaConfirmation
09:39:54.0 (52651939)|EXECUTION_FINISHED
