45.0 APEX_CODE,DEBUG;APEX_PROFILING,INFO;CALLOUT,INFO;DB,INFO;NBA,INFO;SYSTEM,DEBUG;VALIDATION,INFO;VISUALFORCE,INFO;WAVE,INFO;WORKFLOW,NONE
08:26:28.0 (175498)|USER_INFO|[EXTERNAL]|0051N000006IqOb|developer@fastslowmotion.com.partial|(GMT-05:00) Central Daylight Time (America/Chicago)|GMT-05:00
08:26:28.0 (219633)|EXECUTION_STARTED
08:26:28.0 (225950)|CODE_UNIT_STARTED|[EXTERNAL]|066f0000000Wtdk|VF: /apex/NewInvoiceAdjustment
08:26:28.0 (461141)|VF_DESERIALIZE_VIEWSTATE_BEGIN|066f0000000Wtdk
08:26:28.0 (8087455)|VF_DESERIALIZE_VIEWSTATE_END
08:26:28.0 (10922127)|SYSTEM_MODE_ENTER|true
08:26:28.0 (11135564)|SYSTEM_MODE_ENTER|true
08:26:28.0 (11204329)|SYSTEM_MODE_ENTER|true
08:26:28.0 (11249605)|SYSTEM_MODE_ENTER|true
08:26:28.0 (11578374)|SYSTEM_MODE_ENTER|true
08:26:28.0 (11728646)|SYSTEM_MODE_ENTER|true
08:26:28.0 (11853647)|SYSTEM_MODE_ENTER|true
08:26:28.0 (11930805)|SYSTEM_MODE_ENTER|true
08:26:28.0 (11993160)|SYSTEM_MODE_ENTER|true
08:26:28.0 (12035909)|SYSTEM_MODE_ENTER|true
08:26:28.0 (12197115)|SYSTEM_MODE_ENTER|true
08:26:28.0 (12238663)|SYSTEM_MODE_ENTER|true
08:26:28.0 (12280209)|SYSTEM_MODE_ENTER|true
08:26:28.0 (12364155)|SYSTEM_MODE_ENTER|true
08:26:28.0 (12425945)|SYSTEM_MODE_ENTER|true
08:26:28.0 (12481189)|SYSTEM_MODE_ENTER|true
08:26:28.0 (12531412)|SYSTEM_MODE_ENTER|true
08:26:28.0 (12640414)|SYSTEM_MODE_ENTER|true
08:26:28.0 (13307728)|SYSTEM_MODE_ENTER|true
08:26:28.0 (18391688)|SYSTEM_MODE_ENTER|true
08:26:28.0 (18453852)|SYSTEM_MODE_ENTER|true
08:26:28.0 (18493959)|SYSTEM_MODE_ENTER|true
08:26:28.0 (18590392)|SYSTEM_MODE_ENTER|true
08:26:28.0 (18656128)|SYSTEM_MODE_ENTER|true
08:26:28.0 (18707984)|SYSTEM_MODE_ENTER|true
08:26:28.0 (18748302)|SYSTEM_MODE_ENTER|true
08:26:28.0 (18793442)|SYSTEM_MODE_ENTER|true
08:26:28.0 (18828005)|SYSTEM_MODE_ENTER|true
08:26:28.0 (20250968)|SOQL_EXECUTE_BEGIN|[118]|Aggregations:0|SELECT Name,Type, Id FROM Account 
08:26:28.0 (24025509)|SOQL_EXECUTE_END|[118]|Rows:1
08:26:28.0 (26153453)|VF_SERIALIZE_VIEWSTATE_BEGIN|066f0000000Wtdk
08:26:28.0 (41219010)|VF_SERIALIZE_VIEWSTATE_END
08:26:28.0 (46288399)|CODE_UNIT_STARTED|[EXTERNAL]|Generate Metadata
08:26:28.0 (51920511)|CODE_UNIT_FINISHED|Generate Metadata
08:26:28.0 (101909323)|SYSTEM_MODE_ENTER|true
08:26:28.103 (103418671)|CUMULATIVE_LIMIT_USAGE
08:26:28.103 (103418671)|LIMIT_USAGE_FOR_NS|(default)|
  Number of SOQL queries: 1 out of 100
  Number of query rows: 1 out of 50000
  Number of SOSL queries: 0 out of 20
  Number of DML statements: 0 out of 150
  Number of DML rows: 0 out of 10000
  Maximum CPU time: 0 out of 10000
  Maximum heap size: 0 out of 6000000
  Number of callouts: 0 out of 100
  Number of Email Invocations: 0 out of 10
  Number of future calls: 0 out of 50
  Number of queueable jobs added to the queue: 0 out of 50
  Number of Mobile Apex push calls: 0 out of 10

08:26:28.103 (103418671)|CUMULATIVE_LIMIT_USAGE_END

08:26:28.0 (103491364)|CODE_UNIT_FINISHED|VF: /apex/NewInvoiceAdjustment
08:26:28.0 (104594877)|EXECUTION_FINISHED
