45.0 APEX_CODE,DEBUG;APEX_PROFILING,INFO;CALLOUT,INFO;DB,INFO;NBA,INFO;SYSTEM,DEBUG;VALIDATION,INFO;VISUALFORCE,INFO;WAVE,INFO;WORKFLOW,NONE
06:30:15.0 (157008)|USER_INFO|[EXTERNAL]|0051N000006IqOb|developer@fastslowmotion.com.partial|(GMT-05:00) Central Daylight Time (America/Chicago)|GMT-05:00
06:30:15.0 (198708)|EXECUTION_STARTED
06:30:15.0 (204477)|CODE_UNIT_STARTED|[EXTERNAL]|Aura
06:30:15.0 (1938559)|CODE_UNIT_STARTED|[EXTERNAL]|01pf0000001PRwy|HorizonApplicationController.getUserInformation()
06:30:15.0 (3883335)|SOQL_EXECUTE_BEGIN|[16]|Aggregations:0|SELECT Id, Name, TimeZoneSidKey, Username, Alias, Country, Email, FirstName, LastName, IsActive, IsPortalEnabled FROM User WHERE Id = :tmpVar1
06:30:15.0 (7903691)|SOQL_EXECUTE_END|[16]|Rows:1
06:30:15.0 (8258045)|USER_DEBUG|[19]|DEBUG|userInfo :: User:{Id=0051N000006IqObQAK, Name=fsm devteam, TimeZoneSidKey=America/Chicago, Username=developer@fastslowmotion.com.partial, Alias=fdevt, Email=developer@fastslowmotion.com, FirstName=fsm, LastName=devteam, IsActive=true, IsPortalEnabled=false}
06:30:15.0 (8394279)|USER_DEBUG|[21]|DEBUG|userInfo :: User:{Id=0051N000006IqObQAK, Name=fsm devteam, TimeZoneSidKey=America/Chicago, Username=developer@fastslowmotion.com.partial, Alias=fdevt, Email=developer@fastslowmotion.com, FirstName=fsm, LastName=devteam, IsActive=true, IsPortalEnabled=false}
06:30:15.0 (8763184)|USER_DEBUG|[13]|DEBUG|Return Result :: {"messageStr":"Success","isSuccess":true,"data":{"attributes":{"type":"User","url":"/services/data/v45.0/sobjects/User/0051N000006IqObQAK"},"Id":"0051N000006IqObQAK","Name":"fsm devteam","TimeZoneSidKey":"America/Chicago","Username":"developer@fastslowmotion.com.partial","Alias":"fdevt","Email":"developer@fastslowmotion.com","FirstName":"fsm","LastName":"devteam","IsActive":true,"IsPortalEnabled":false}}
06:30:15.0 (9151819)|SOQL_EXECUTE_BEGIN|[16]|Aggregations:0|SELECT Id, Name, TimeZoneSidKey, Username, Alias, Country, Email, FirstName, LastName, IsActive, IsPortalEnabled FROM User WHERE Id = :tmpVar1
06:30:15.0 (12294660)|SOQL_EXECUTE_END|[16]|Rows:1
06:30:15.0 (12471737)|USER_DEBUG|[19]|DEBUG|userInfo :: User:{Id=0051N000006IqObQAK, Name=fsm devteam, TimeZoneSidKey=America/Chicago, Username=developer@fastslowmotion.com.partial, Alias=fdevt, Email=developer@fastslowmotion.com, FirstName=fsm, LastName=devteam, IsActive=true, IsPortalEnabled=false}
06:30:15.0 (12556725)|USER_DEBUG|[21]|DEBUG|userInfo :: User:{Id=0051N000006IqObQAK, Name=fsm devteam, TimeZoneSidKey=America/Chicago, Username=developer@fastslowmotion.com.partial, Alias=fdevt, Email=developer@fastslowmotion.com, FirstName=fsm, LastName=devteam, IsActive=true, IsPortalEnabled=false}
06:30:15.12 (12615839)|CUMULATIVE_LIMIT_USAGE
06:30:15.12 (12615839)|LIMIT_USAGE_FOR_NS|(default)|
  Number of SOQL queries: 2 out of 100
  Number of query rows: 2 out of 50000
  Number of SOSL queries: 0 out of 20
  Number of DML statements: 0 out of 150
  Number of DML rows: 0 out of 10000
  Maximum CPU time: 0 out of 10000
  Maximum heap size: 0 out of 6000000
  Number of callouts: 0 out of 100
  Number of Email Invocations: 0 out of 10
  Number of future calls: 0 out of 50
  Number of queueable jobs added to the queue: 0 out of 50
  Number of Mobile Apex push calls: 0 out of 10

06:30:15.12 (12615839)|CUMULATIVE_LIMIT_USAGE_END

06:30:15.0 (12657773)|CODE_UNIT_FINISHED|HorizonApplicationController.getUserInformation()
06:30:15.0 (13301342)|CODE_UNIT_FINISHED|Aura
06:30:15.0 (14342457)|EXECUTION_FINISHED
