45.0 APEX_CODE,DEBUG;APEX_PROFILING,INFO;CALLOUT,INFO;DB,INFO;NBA,INFO;SYSTEM,DEBUG;VALIDATION,INFO;VISUALFORCE,INFO;WAVE,INFO;WORKFLOW,NONE
04:55:12.0 (197680)|USER_INFO|[EXTERNAL]|0051N000006IqOb|developer@fastslowmotion.com.partial|(GMT-05:00) Central Daylight Time (America/Chicago)|GMT-05:00
04:55:12.0 (248878)|EXECUTION_STARTED
04:55:12.0 (255339)|CODE_UNIT_STARTED|[EXTERNAL]|066f0000000Wtdk|VF: /apex/NewInvoiceAdjustment
04:55:12.0 (10896009)|SYSTEM_MODE_ENTER|true
04:55:12.0 (11364856)|SYSTEM_MODE_ENTER|true
04:55:12.0 (11808927)|SYSTEM_MODE_ENTER|true
04:55:12.0 (11897212)|SYSTEM_MODE_ENTER|true
04:55:12.0 (11954963)|SYSTEM_MODE_ENTER|true
04:55:12.0 (12150319)|SYSTEM_MODE_ENTER|true
04:55:12.0 (163836353)|SYSTEM_MODE_ENTER|true
04:55:12.0 (164352292)|SYSTEM_MODE_ENTER|true
04:55:12.0 (165031049)|SYSTEM_MODE_ENTER|true
04:55:12.0 (165151435)|SYSTEM_MODE_ENTER|true
04:55:12.0 (165289812)|SYSTEM_MODE_ENTER|true
04:55:12.0 (165387204)|SYSTEM_MODE_ENTER|true
04:55:12.0 (167159061)|SYSTEM_MODE_ENTER|true
04:55:12.0 (167272324)|SYSTEM_MODE_ENTER|true
04:55:12.0 (167353024)|SYSTEM_MODE_ENTER|true
04:55:12.0 (167549170)|SYSTEM_MODE_ENTER|true
04:55:12.0 (167696858)|SYSTEM_MODE_ENTER|true
04:55:12.0 (167811375)|SYSTEM_MODE_ENTER|true
04:55:12.0 (167913242)|SYSTEM_MODE_ENTER|true
04:55:12.0 (168148741)|SYSTEM_MODE_ENTER|true
04:55:12.0 (169283075)|SYSTEM_MODE_ENTER|true
04:55:12.0 (169412434)|SYSTEM_MODE_ENTER|true
04:55:12.0 (170547101)|SYSTEM_MODE_ENTER|true
04:55:12.0 (170723825)|SYSTEM_MODE_ENTER|true
04:55:12.0 (171717602)|VF_SERIALIZE_VIEWSTATE_BEGIN|066f0000000Wtdk
04:55:12.0 (191033047)|VF_SERIALIZE_VIEWSTATE_END
04:55:12.0 (194227606)|CODE_UNIT_STARTED|[EXTERNAL]|Generate Metadata
04:55:12.0 (207683735)|CODE_UNIT_FINISHED|Generate Metadata
04:55:12.293 (293232647)|CUMULATIVE_LIMIT_USAGE
04:55:12.293 (293232647)|LIMIT_USAGE_FOR_NS|(default)|
  Number of SOQL queries: 0 out of 100
  Number of query rows: 0 out of 50000
  Number of SOSL queries: 0 out of 20
  Number of DML statements: 0 out of 150
  Number of DML rows: 0 out of 10000
  Maximum CPU time: 0 out of 10000
  Maximum heap size: 0 out of 6000000
  Number of callouts: 0 out of 100
  Number of Email Invocations: 0 out of 10
  Number of future calls: 0 out of 50
  Number of queueable jobs added to the queue: 0 out of 50
  Number of Mobile Apex push calls: 0 out of 10

04:55:12.293 (293232647)|CUMULATIVE_LIMIT_USAGE_END

04:55:12.0 (293309593)|CODE_UNIT_FINISHED|VF: /apex/NewInvoiceAdjustment
04:55:12.0 (294474518)|EXECUTION_FINISHED
