45.0 APEX_CODE,DEBUG;APEX_PROFILING,INFO;CALLOUT,INFO;DB,INFO;NBA,INFO;SYSTEM,DEBUG;VALIDATION,INFO;VISUALFORCE,INFO;WAVE,INFO;WORKFLOW,NONE
04:14:34.0 (452074)|USER_INFO|[EXTERNAL]|0051N000006IqOb|developer@fastslowmotion.com.partial|(GMT-05:00) Central Daylight Time (America/Chicago)|GMT-05:00
04:14:34.0 (508578)|EXECUTION_STARTED
04:14:34.0 (515019)|CODE_UNIT_STARTED|[EXTERNAL]|066f0000000Wtdk|VF: /apex/NewInvoiceAdjustment
04:14:34.0 (2306427)|SYSTEM_MODE_ENTER|true
04:14:34.0 (2755320)|SYSTEM_MODE_ENTER|true
04:14:34.0 (3112115)|SYSTEM_MODE_ENTER|true
04:14:34.0 (3182971)|SYSTEM_MODE_ENTER|true
04:14:34.0 (3229990)|SYSTEM_MODE_ENTER|true
04:14:34.0 (3437831)|SYSTEM_MODE_ENTER|true
04:14:34.0 (123611116)|SYSTEM_MODE_ENTER|true
04:14:34.0 (123787641)|SYSTEM_MODE_ENTER|true
04:14:34.0 (124187855)|SYSTEM_MODE_ENTER|true
04:14:34.0 (124246421)|SYSTEM_MODE_ENTER|true
04:14:34.0 (124315493)|SYSTEM_MODE_ENTER|true
04:14:34.0 (124363280)|SYSTEM_MODE_ENTER|true
04:14:34.0 (125460442)|SYSTEM_MODE_ENTER|true
04:14:34.0 (125522583)|SYSTEM_MODE_ENTER|true
04:14:34.0 (125564501)|SYSTEM_MODE_ENTER|true
04:14:34.0 (125670799)|SYSTEM_MODE_ENTER|true
04:14:34.0 (125754459)|SYSTEM_MODE_ENTER|true
04:14:34.0 (125817957)|SYSTEM_MODE_ENTER|true
04:14:34.0 (125871786)|SYSTEM_MODE_ENTER|true
04:14:34.0 (126012353)|SYSTEM_MODE_ENTER|true
04:14:34.0 (126549185)|SYSTEM_MODE_ENTER|true
04:14:34.0 (126618562)|SYSTEM_MODE_ENTER|true
04:14:34.0 (127022361)|SYSTEM_MODE_ENTER|true
04:14:34.0 (127103275)|SYSTEM_MODE_ENTER|true
04:14:34.0 (127697051)|VF_SERIALIZE_VIEWSTATE_BEGIN|066f0000000Wtdk
04:14:34.0 (136529591)|VF_SERIALIZE_VIEWSTATE_END
04:14:34.0 (139570683)|CODE_UNIT_STARTED|[EXTERNAL]|Generate Metadata
04:14:34.0 (141480836)|CODE_UNIT_FINISHED|Generate Metadata
04:14:34.177 (177632163)|CUMULATIVE_LIMIT_USAGE
04:14:34.177 (177632163)|LIMIT_USAGE_FOR_NS|(default)|
  Number of SOQL queries: 0 out of 100
  Number of query rows: 0 out of 50000
  Number of SOSL queries: 0 out of 20
  Number of DML statements: 0 out of 150
  Number of DML rows: 0 out of 10000
  Maximum CPU time: 0 out of 10000
  Maximum heap size: 0 out of 6000000
  Number of callouts: 0 out of 100
  Number of Email Invocations: 0 out of 10
  Number of future calls: 0 out of 50
  Number of queueable jobs added to the queue: 0 out of 50
  Number of Mobile Apex push calls: 0 out of 10

04:14:34.177 (177632163)|CUMULATIVE_LIMIT_USAGE_END

04:14:34.0 (177708352)|CODE_UNIT_FINISHED|VF: /apex/NewInvoiceAdjustment
04:14:34.0 (178765063)|EXECUTION_FINISHED
