45.0 APEX_CODE,DEBUG;APEX_PROFILING,INFO;CALLOUT,INFO;DB,INFO;NBA,INFO;SYSTEM,DEBUG;VALIDATION,INFO;VISUALFORCE,INFO;WAVE,INFO;WORKFLOW,NONE
06:12:37.0 (206687)|USER_INFO|[EXTERNAL]|0051N000006IqOb|developer@fastslowmotion.com.partial|(GMT-05:00) Central Daylight Time (America/Chicago)|GMT-05:00
06:12:37.0 (256940)|EXECUTION_STARTED
06:12:37.0 (264564)|CODE_UNIT_STARTED|[EXTERNAL]|VF: /apextemplate/apexremote
06:12:37.320 (320243891)|CUMULATIVE_LIMIT_USAGE
06:12:37.320 (320243891)|LIMIT_USAGE_FOR_NS|(default)|
  Number of SOQL queries: 0 out of 100
  Number of query rows: 0 out of 50000
  Number of SOSL queries: 0 out of 20
  Number of DML statements: 0 out of 150
  Number of DML rows: 0 out of 10000
  Maximum CPU time: 0 out of 10000
  Maximum heap size: 0 out of 6000000
  Number of callouts: 0 out of 100
  Number of Email Invocations: 0 out of 10
  Number of future calls: 0 out of 50
  Number of queueable jobs added to the queue: 0 out of 50
  Number of Mobile Apex push calls: 0 out of 10

06:12:37.320 (320243891)|CUMULATIVE_LIMIT_USAGE_END

06:12:37.0 (320306644)|CODE_UNIT_FINISHED|VF: /apextemplate/apexremote
06:12:37.0 (321410746)|EXECUTION_FINISHED
