45.0 APEX_CODE,DEBUG;APEX_PROFILING,INFO;CALLOUT,INFO;DB,INFO;NBA,INFO;SYSTEM,DEBUG;VALIDATION,INFO;VISUALFORCE,INFO;WAVE,INFO;WORKFLOW,NONE
02:46:03.0 (172190)|USER_INFO|[EXTERNAL]|0051N000006IqOb|developer@fastslowmotion.com.partial|(GMT-05:00) Central Daylight Time (America/Chicago)|GMT-05:00
02:46:03.0 (216367)|EXECUTION_STARTED
02:46:03.0 (222020)|CODE_UNIT_STARTED|[EXTERNAL]|Aura
02:46:03.0 (2863107)|CODE_UNIT_STARTED|[EXTERNAL]|01pf0000001PRwy|HorizonApplicationController.getCurrenBankDataUserRec(String)
02:46:03.0 (73288363)|SOQL_EXECUTE_BEGIN|[38]|Aggregations:0|SELECT  id, ownerid, isdeleted, name, createddate, createdbyid, lastmodifieddate, lastmodifiedbyid, systemmodstamp, lastvieweddate, lastreferenceddate, connectionreceivedid, connectionsentid, physical_address__c, date_of_birth__c, social_security_number__c, telephone_number__c, occupation__c, email__c, primary_id_number__c, expiration_date__c, passport_number__c, country_of_issuance__c, bankdata__c, controlling_manager__c, controlling_manager_ssn__c, is_benificial_owner__c, beneficial_owner1__c, beneficial_owner2__c, beneficial_owner3__c, beneficial_owner4__c, beneficial_owner1_ssn__c, beneficial_owner2_ssn__c, beneficial_owner3_ssn__c, beneficial_owner4_ssn__c, signer_or_benificial_name__c, authorized_signature__c, authorized_signature_date__c, re_certification_date__c, bank_employee__c, is_signer__c, beneficial_owner_ssn__c, is_signer_or_beneficial_owner__c, is_u_s_citizen__c, mobile_number__c, tax_id_number__c, business_s_articles_of_formation__c, issuing_state__c, is_business_registered_state_know__c FROM Bank_Data_Users__c WHERE Id =: recordIdStr LIMIT 1
02:46:03.0 (82949510)|SOQL_EXECUTE_END|[38]|Rows:1
02:46:03.83 (83463790)|CUMULATIVE_LIMIT_USAGE
02:46:03.83 (83463790)|LIMIT_USAGE_FOR_NS|(default)|
  Number of SOQL queries: 1 out of 100
  Number of query rows: 1 out of 50000
  Number of SOSL queries: 0 out of 20
  Number of DML statements: 0 out of 150
  Number of DML rows: 0 out of 10000
  Maximum CPU time: 0 out of 10000
  Maximum heap size: 0 out of 6000000
  Number of callouts: 0 out of 100
  Number of Email Invocations: 0 out of 10
  Number of future calls: 0 out of 50
  Number of queueable jobs added to the queue: 0 out of 50
  Number of Mobile Apex push calls: 0 out of 10

02:46:03.83 (83463790)|CUMULATIVE_LIMIT_USAGE_END

02:46:03.0 (83544463)|CODE_UNIT_FINISHED|HorizonApplicationController.getCurrenBankDataUserRec(String)
02:46:03.0 (84420900)|CODE_UNIT_FINISHED|Aura
02:46:03.0 (85854190)|EXECUTION_FINISHED
02:46:03.89 (89705794)|USER_INFO|[EXTERNAL]|0051N000006IqOb|developer@fastslowmotion.com.partial|(GMT-05:00) Central Daylight Time (America/Chicago)|GMT-05:00
02:46:03.89 (89734097)|EXECUTION_STARTED
02:46:03.89 (89740016)|CODE_UNIT_STARTED|[EXTERNAL]|Aura
02:46:03.89 (91631060)|CODE_UNIT_STARTED|[EXTERNAL]|01pf0000001PRwy|HorizonApplicationController.getCurrenBankDataUserRec(String)
02:46:03.89 (117374589)|SOQL_EXECUTE_BEGIN|[38]|Aggregations:0|SELECT  id, ownerid, isdeleted, name, createddate, createdbyid, lastmodifieddate, lastmodifiedbyid, systemmodstamp, lastvieweddate, lastreferenceddate, connectionreceivedid, connectionsentid, physical_address__c, date_of_birth__c, social_security_number__c, telephone_number__c, occupation__c, email__c, primary_id_number__c, expiration_date__c, passport_number__c, country_of_issuance__c, bankdata__c, controlling_manager__c, controlling_manager_ssn__c, is_benificial_owner__c, beneficial_owner1__c, beneficial_owner2__c, beneficial_owner3__c, beneficial_owner4__c, beneficial_owner1_ssn__c, beneficial_owner2_ssn__c, beneficial_owner3_ssn__c, beneficial_owner4_ssn__c, signer_or_benificial_name__c, authorized_signature__c, authorized_signature_date__c, re_certification_date__c, bank_employee__c, is_signer__c, beneficial_owner_ssn__c, is_signer_or_beneficial_owner__c, is_u_s_citizen__c, mobile_number__c, tax_id_number__c, business_s_articles_of_formation__c, issuing_state__c, is_business_registered_state_know__c FROM Bank_Data_Users__c WHERE Id =: recordIdStr LIMIT 1
02:46:03.89 (126466378)|SOQL_EXECUTE_END|[38]|Rows:1
02:46:03.126 (126669308)|CUMULATIVE_LIMIT_USAGE
02:46:03.126 (126669308)|LIMIT_USAGE_FOR_NS|(default)|
  Number of SOQL queries: 2 out of 100
  Number of query rows: 2 out of 50000
  Number of SOSL queries: 0 out of 20
  Number of DML statements: 0 out of 150
  Number of DML rows: 0 out of 10000
  Maximum CPU time: 0 out of 10000
  Maximum heap size: 0 out of 6000000
  Number of callouts: 0 out of 100
  Number of Email Invocations: 0 out of 10
  Number of future calls: 0 out of 50
  Number of queueable jobs added to the queue: 0 out of 50
  Number of Mobile Apex push calls: 0 out of 10

02:46:03.126 (126669308)|CUMULATIVE_LIMIT_USAGE_END

02:46:03.89 (126722173)|CODE_UNIT_FINISHED|HorizonApplicationController.getCurrenBankDataUserRec(String)
02:46:03.89 (127578882)|CODE_UNIT_FINISHED|Aura
02:46:03.89 (128680853)|EXECUTION_FINISHED
