43.0 APEX_CODE,DEBUG;APEX_PROFILING,INFO;CALLOUT,INFO;DB,INFO;NBA,INFO;SYSTEM,DEBUG;VALIDATION,INFO;VISUALFORCE,INFO;WAVE,INFO;WORKFLOW,NONE
12:37:40.0 (97232)|USER_INFO|[EXTERNAL]|0051N000007R2t4|sedera@sedera.force.com.partial|Greenwich Mean Time|GMTZ
12:37:40.0 (131668)|EXECUTION_STARTED
12:37:40.0 (136169)|CODE_UNIT_STARTED|[EXTERNAL]|01p1N000005CiEE|PauboxMessageEventBatch
12:37:40.0 (22999176)|SYSTEM_MODE_ENTER|false
12:37:40.0 (23050208)|SYSTEM_MODE_EXIT|false
12:37:40.0 (23114636)|SYSTEM_MODE_ENTER|false
12:37:40.0 (24856522)|USER_DEBUG|[321]|DEBUG|111111::::: 
System.HttpRequest[Endpoint=https://api.paubox.net/v1/sedera/message_receipt?sourceTrackingId=16c9a51a-f574-42b1-b0a5-e28ff86974b2, Method=GET]
12:37:40.0 (25009682)|CALLOUT_REQUEST|[324]|System.HttpRequest[Endpoint=https://api.paubox.net/v1/sedera/message_receipt?sourceTrackingId=16c9a51a-f574-42b1-b0a5-e28ff86974b2, Method=GET]
12:37:40.0 (389133899)|CALLOUT_RESPONSE|[324]|System.HttpResponse[Status=OK, StatusCode=200]
12:37:40.0 (389279527)|USER_DEBUG|[326]|DEBUG|2222222222222222 ::::: 
{"sourceTrackingId":"16c9a51a-f574-42b1-b0a5-e28ff86974b2","data":{"message":{"id":"\u003c9b778eaf-b60f-4dd7-868a-78be1e8e926d@sedera.com\u003e","message_deliveries":[{"recipient":"bhagyashri+2552@dreamwares.com","status":{"deliveryStatus":"delivered","deliveryTime":"Mon, 15 Apr 2019 04:38:32 -0700","openedStatus":"unopened","openedTime":null}}]}}}
12:37:40.0 (389731140)|USER_DEBUG|[387]|DEBUG|currentDate ::::Mon, 15 Apr 2019 04:38:32 -0700
12:37:40.0 (390092209)|SYSTEM_MODE_EXIT|false
12:37:40.435 (435741439)|CUMULATIVE_LIMIT_USAGE
12:37:40.435 (435741439)|LIMIT_USAGE_FOR_NS|(default)|
  Number of SOQL queries: 0 out of 200
  Number of query rows: 0 out of 50000
  Number of SOSL queries: 0 out of 20
  Number of DML statements: 0 out of 150
  Number of DML rows: 0 out of 10000
  Maximum CPU time: 0 out of 60000
  Maximum heap size: 0 out of 12000000
  Number of callouts: 0 out of 0
  Number of Email Invocations: 0 out of 10
  Number of future calls: 0 out of 0
  Number of queueable jobs added to the queue: 0 out of 1
  Number of Mobile Apex push calls: 0 out of 10

12:37:40.435 (435741439)|CUMULATIVE_LIMIT_USAGE_END

12:37:40.0 (435804890)|CODE_UNIT_FINISHED|PauboxMessageEventBatch
12:37:40.0 (437440287)|EXECUTION_FINISHED
