45.0 APEX_CODE,DEBUG;APEX_PROFILING,INFO;CALLOUT,INFO;DB,INFO;NBA,INFO;SYSTEM,DEBUG;VALIDATION,INFO;VISUALFORCE,INFO;WAVE,INFO;WORKFLOW,NONE
04:20:12.0 (416376)|USER_INFO|[EXTERNAL]|0051N000006IqOb|developer@fastslowmotion.com.partial|(GMT-05:00) Central Daylight Time (America/Chicago)|GMT-05:00
04:20:12.0 (472139)|EXECUTION_STARTED
04:20:12.0 (479021)|CODE_UNIT_STARTED|[EXTERNAL]|Aura
04:20:12.0 (2695793)|CODE_UNIT_STARTED|[EXTERNAL]|01pf0000001PRwy|HorizonApplicationController.getUserInformation()
04:20:12.0 (5539332)|SOQL_EXECUTE_BEGIN|[16]|Aggregations:0|SELECT Id, Name, TimeZoneSidKey, Username, Alias, Country, Email, FirstName, LastName, IsActive, IsPortalEnabled FROM User WHERE Id = :tmpVar1
04:20:12.0 (11869542)|SOQL_EXECUTE_END|[16]|Rows:1
04:20:12.0 (12257509)|USER_DEBUG|[19]|DEBUG|userInfo :: User:{Id=0051N000006IqObQAK, Name=fsm devteam, TimeZoneSidKey=America/Chicago, Username=developer@fastslowmotion.com.partial, Alias=fdevt, Email=developer@fastslowmotion.com, FirstName=fsm, LastName=devteam, IsActive=true, IsPortalEnabled=false}
04:20:12.0 (12408491)|USER_DEBUG|[21]|DEBUG|userInfo :: User:{Id=0051N000006IqObQAK, Name=fsm devteam, TimeZoneSidKey=America/Chicago, Username=developer@fastslowmotion.com.partial, Alias=fdevt, Email=developer@fastslowmotion.com, FirstName=fsm, LastName=devteam, IsActive=true, IsPortalEnabled=false}
04:20:12.12 (12582134)|CUMULATIVE_LIMIT_USAGE
04:20:12.12 (12582134)|LIMIT_USAGE_FOR_NS|(default)|
  Number of SOQL queries: 1 out of 100
  Number of query rows: 1 out of 50000
  Number of SOSL queries: 0 out of 20
  Number of DML statements: 0 out of 150
  Number of DML rows: 0 out of 10000
  Maximum CPU time: 0 out of 10000
  Maximum heap size: 0 out of 6000000
  Number of callouts: 0 out of 100
  Number of Email Invocations: 0 out of 10
  Number of future calls: 0 out of 50
  Number of queueable jobs added to the queue: 0 out of 50
  Number of Mobile Apex push calls: 0 out of 10

04:20:12.12 (12582134)|CUMULATIVE_LIMIT_USAGE_END

04:20:12.0 (12642969)|CODE_UNIT_FINISHED|HorizonApplicationController.getUserInformation()
04:20:12.0 (13280267)|CODE_UNIT_FINISHED|Aura
04:20:12.0 (14324125)|EXECUTION_FINISHED
