43.0 APEX_CODE,DEBUG;APEX_PROFILING,INFO;CALLOUT,INFO;DB,INFO;NBA,INFO;SYSTEM,DEBUG;VALIDATION,INFO;VISUALFORCE,INFO;WAVE,INFO;WORKFLOW,NONE
04:45:16.0 (113068)|USER_INFO|[EXTERNAL]|0051N000006IqOb|developer@fastslowmotion.com.partial|Central Standard Time|GMT-05:00
04:45:16.0 (153777)|EXECUTION_STARTED
04:45:16.0 (160307)|CODE_UNIT_STARTED|[EXTERNAL]|0661N0000054bsK|VF: /apex/ChoseMECdefaultVF
04:45:16.0 (6450289)|SYSTEM_MODE_ENTER|true
04:45:16.0 (10168748)|SOQL_EXECUTE_BEGIN|[42]|Aggregations:0|SELECT id, Name, MEC_Product__r.Name, Default_MEC_Product__c FROM AccountMECAssociation__c WHERE Employer_Account__c = :tmpVar1
04:45:16.0 (16341852)|SOQL_EXECUTE_END|[42]|Rows:1
04:45:16.0 (17509530)|SYSTEM_MODE_ENTER|true
04:45:16.0 (18123361)|SYSTEM_MODE_ENTER|true
04:45:16.0 (18208451)|SYSTEM_MODE_ENTER|true
04:45:16.0 (18856197)|SYSTEM_MODE_ENTER|true
04:45:16.0 (29200041)|SYSTEM_MODE_ENTER|true
04:45:16.0 (33130540)|SYSTEM_MODE_ENTER|true
04:45:16.0 (35053094)|VF_SERIALIZE_VIEWSTATE_BEGIN|0661N0000054bsK
04:45:16.0 (38068381)|VF_SERIALIZE_VIEWSTATE_END
04:45:16.77 (77533365)|CUMULATIVE_LIMIT_USAGE
04:45:16.77 (77533365)|LIMIT_USAGE_FOR_NS|(default)|
  Number of SOQL queries: 1 out of 100
  Number of query rows: 1 out of 50000
  Number of SOSL queries: 0 out of 20
  Number of DML statements: 0 out of 150
  Number of DML rows: 0 out of 10000
  Maximum CPU time: 0 out of 10000
  Maximum heap size: 0 out of 6000000
  Number of callouts: 0 out of 100
  Number of Email Invocations: 0 out of 10
  Number of future calls: 0 out of 50
  Number of queueable jobs added to the queue: 0 out of 50
  Number of Mobile Apex push calls: 0 out of 10

04:45:16.77 (77533365)|CUMULATIVE_LIMIT_USAGE_END

04:45:16.0 (77597704)|CODE_UNIT_FINISHED|VF: /apex/ChoseMECdefaultVF
04:45:16.0 (78601244)|EXECUTION_FINISHED
