45.0 APEX_CODE,DEBUG;APEX_PROFILING,INFO;CALLOUT,INFO;DB,INFO;NBA,INFO;SYSTEM,DEBUG;VALIDATION,INFO;VISUALFORCE,INFO;WAVE,INFO;WORKFLOW,NONE
07:53:35.0 (171274)|USER_INFO|[EXTERNAL]|0051N000006IqOb|developer@fastslowmotion.com.partial|(GMT-05:00) Central Daylight Time (America/Chicago)|GMT-05:00
07:53:35.0 (221737)|EXECUTION_STARTED
07:53:35.0 (227653)|CODE_UNIT_STARTED|[EXTERNAL]|066f0000000Wtdk|VF: /apex/NewInvoiceAdjustment
07:53:35.0 (432619)|VF_DESERIALIZE_VIEWSTATE_BEGIN|066f0000000Wtdk
07:53:35.0 (5215376)|VF_DESERIALIZE_VIEWSTATE_END
07:53:35.0 (7828079)|SYSTEM_MODE_ENTER|true
07:53:35.0 (8092387)|SYSTEM_MODE_ENTER|true
07:53:35.0 (8170313)|SYSTEM_MODE_ENTER|true
07:53:35.0 (8235945)|SYSTEM_MODE_ENTER|true
07:53:35.0 (8623804)|SYSTEM_MODE_ENTER|true
07:53:35.0 (8799761)|SYSTEM_MODE_ENTER|true
07:53:35.0 (8939200)|SYSTEM_MODE_ENTER|true
07:53:35.0 (9012482)|SYSTEM_MODE_ENTER|true
07:53:35.0 (9095583)|SYSTEM_MODE_ENTER|true
07:53:35.0 (9142612)|SYSTEM_MODE_ENTER|true
07:53:35.0 (9377155)|SYSTEM_MODE_ENTER|true
07:53:35.0 (9419320)|SYSTEM_MODE_ENTER|true
07:53:35.0 (9453483)|SYSTEM_MODE_ENTER|true
07:53:35.0 (9544637)|SYSTEM_MODE_ENTER|true
07:53:35.0 (9608558)|SYSTEM_MODE_ENTER|true
07:53:35.0 (9666851)|SYSTEM_MODE_ENTER|true
07:53:35.0 (9716897)|SYSTEM_MODE_ENTER|true
07:53:35.0 (9932273)|SYSTEM_MODE_ENTER|true
07:53:35.0 (10876275)|SYSTEM_MODE_ENTER|true
07:53:35.0 (17307792)|SYSTEM_MODE_ENTER|true
07:53:35.0 (17370366)|SYSTEM_MODE_ENTER|true
07:53:35.0 (17409190)|SYSTEM_MODE_ENTER|true
07:53:35.0 (17509023)|SYSTEM_MODE_ENTER|true
07:53:35.0 (17577349)|SYSTEM_MODE_ENTER|true
07:53:35.0 (17628182)|SYSTEM_MODE_ENTER|true
07:53:35.0 (17666498)|SYSTEM_MODE_ENTER|true
07:53:35.0 (17708551)|SYSTEM_MODE_ENTER|true
07:53:35.0 (17741673)|SYSTEM_MODE_ENTER|true
07:53:35.0 (19492877)|SOQL_EXECUTE_BEGIN|[118]|Aggregations:0|SELECT Name,Type, Id FROM Account 
07:53:35.0 (23657825)|SOQL_EXECUTE_END|[118]|Rows:1
07:53:35.0 (25399172)|VF_SERIALIZE_VIEWSTATE_BEGIN|066f0000000Wtdk
07:53:35.0 (38211309)|VF_SERIALIZE_VIEWSTATE_END
07:53:35.0 (41636064)|CODE_UNIT_STARTED|[EXTERNAL]|Generate Metadata
07:53:35.0 (43603030)|CODE_UNIT_FINISHED|Generate Metadata
07:53:35.0 (64660376)|SYSTEM_MODE_ENTER|true
07:53:35.65 (65902716)|CUMULATIVE_LIMIT_USAGE
07:53:35.65 (65902716)|LIMIT_USAGE_FOR_NS|(default)|
  Number of SOQL queries: 1 out of 100
  Number of query rows: 1 out of 50000
  Number of SOSL queries: 0 out of 20
  Number of DML statements: 0 out of 150
  Number of DML rows: 0 out of 10000
  Maximum CPU time: 0 out of 10000
  Maximum heap size: 0 out of 6000000
  Number of callouts: 0 out of 100
  Number of Email Invocations: 0 out of 10
  Number of future calls: 0 out of 50
  Number of queueable jobs added to the queue: 0 out of 50
  Number of Mobile Apex push calls: 0 out of 10

07:53:35.65 (65902716)|CUMULATIVE_LIMIT_USAGE_END

07:53:35.0 (65953335)|CODE_UNIT_FINISHED|VF: /apex/NewInvoiceAdjustment
07:53:35.0 (66994777)|EXECUTION_FINISHED
