45.0 APEX_CODE,DEBUG;APEX_PROFILING,INFO;CALLOUT,INFO;DB,INFO;NBA,INFO;SYSTEM,DEBUG;VALIDATION,INFO;VISUALFORCE,INFO;WAVE,INFO;WORKFLOW,NONE
05:49:47.0 (109861)|USER_INFO|[EXTERNAL]|0051N000006IqOb|developer@fastslowmotion.com.partial|(GMT-05:00) Central Daylight Time (America/Chicago)|GMT-05:00
05:49:47.0 (144861)|EXECUTION_STARTED
05:49:47.0 (150254)|CODE_UNIT_STARTED|[EXTERNAL]|066f0000000Wtdk|VFRemote: SLDSDynamicLookupController invoke(search)
05:49:47.0 (165628)|SYSTEM_MODE_ENTER|true
05:49:47.0 (2823398)|SOQL_EXECUTE_BEGIN|[118]|Aggregations:0|SELECT Name,Type, Id FROM Account 
05:49:47.0 (12843977)|SOQL_EXECUTE_END|[118]|Rows:10
05:49:47.0 (15246758)|CODE_UNIT_FINISHED|VFRemote: SLDSDynamicLookupController invoke(search)
05:49:47.0 (16721941)|EXECUTION_FINISHED
