45.0 APEX_CODE,DEBUG;APEX_PROFILING,INFO;CALLOUT,INFO;DB,INFO;NBA,INFO;SYSTEM,DEBUG;VALIDATION,INFO;VISUALFORCE,INFO;WAVE,INFO;WORKFLOW,NONE
04:50:07.0 (74805)|USER_INFO|[EXTERNAL]|0051N000006IqOb|developer@fastslowmotion.com.partial|(GMT-05:00) Central Daylight Time (America/Chicago)|GMT-05:00
04:50:07.0 (109192)|EXECUTION_STARTED
04:50:07.0 (113087)|CODE_UNIT_STARTED|[EXTERNAL]|066f0000000Wtdk|VFRemote: NewInvoiceAdjustmentController invoke(fetchInvoiceAdjustments)
04:50:07.0 (128769)|SYSTEM_MODE_ENTER|true
04:50:07.0 (827734)|USER_DEBUG|[17]|DEBUG|accountId : 001o0000011qcgYAAQ
04:50:07.0 (854205)|USER_DEBUG|[18]|DEBUG|invoiceDate : 2018-09-01
04:50:07.0 (869929)|USER_DEBUG|[19]|DEBUG|totalAdjustment : 
04:50:07.0 (2001246)|SOQL_EXECUTE_BEGIN|[25]|Aggregations:0|SELECT Id, Default_Product__c FROM Account WHERE Id = :tmpVar1 LIMIT 1
04:50:07.0 (6316727)|SOQL_EXECUTE_END|[25]|Rows:1
04:50:07.0 (9114396)|SOQL_EXECUTE_BEGIN|[62]|Aggregations:0| SELECT Gross_Monthly_Total_Existing__c, Gross_Monthly_Total_New__c, Id, Member_Services_Revenue__c,  Liberty_Rx_Total__c, Invoice_Date__c, Name  FROM Invoice__c  
04:50:07.0 (12147144)|SOQL_EXECUTE_END|[62]|Rows:2
04:50:07.0 (14292618)|SOQL_EXECUTE_BEGIN|[67]|Aggregations:0| SELECT Id, Invoice__r.Name, Description_of_Change__c, Date_Change_Requested__c, Invoice__c,  MCS_Bucket__c, Amount__c  FROM Invoice_Adjustment__c  WHERE Employer_Account__c = :accountId AND (Invoice_Period__c = :invoiceDateVal  OR  CALENDAR_MONTH(Invoice_Period__c) = :invoicePreviousMonth)
04:50:07.0 (70511130)|SOQL_EXECUTE_END|[67]|Rows:3
04:50:07.0 (71446310)|CODE_UNIT_FINISHED|VFRemote: NewInvoiceAdjustmentController invoke(fetchInvoiceAdjustments)
04:50:07.0 (73106962)|EXECUTION_FINISHED
