45.0 APEX_CODE,DEBUG;APEX_PROFILING,INFO;CALLOUT,INFO;DB,INFO;NBA,INFO;SYSTEM,DEBUG;VALIDATION,INFO;VISUALFORCE,INFO;WAVE,INFO;WORKFLOW,NONE
06:46:11.0 (118496)|USER_INFO|[EXTERNAL]|0051N000006IqOb|developer@fastslowmotion.com.partial|(GMT-05:00) Central Daylight Time (America/Chicago)|GMT-05:00
06:46:11.0 (156669)|EXECUTION_STARTED
06:46:11.0 (162544)|CODE_UNIT_STARTED|[EXTERNAL]|066f0000000Wtdk|VFRemote: NewInvoiceAdjustmentController invoke(fetchInvoiceAdjustments)
06:46:11.0 (185170)|SYSTEM_MODE_ENTER|true
06:46:11.0 (1202151)|USER_DEBUG|[17]|DEBUG|accountId : 001o0000011qcgYAAQ
06:46:11.0 (1241324)|USER_DEBUG|[18]|DEBUG|invoiceDate : 2018-09-01
06:46:11.0 (1261801)|USER_DEBUG|[19]|DEBUG|totalAdjustment : 
06:46:11.0 (3097525)|SOQL_EXECUTE_BEGIN|[25]|Aggregations:0|SELECT Id, Default_Product__c FROM Account WHERE Id = :tmpVar1 LIMIT 1
06:46:11.0 (8261316)|SOQL_EXECUTE_END|[25]|Rows:1
06:46:11.0 (11582490)|SOQL_EXECUTE_BEGIN|[62]|Aggregations:0| SELECT Gross_Monthly_Total_Existing__c, Gross_Monthly_Total_New__c, Id, Member_Services_Revenue__c,  Liberty_Rx_Total__c, Invoice_Date__c, Name  FROM Invoice__c  
06:46:11.0 (15510011)|SOQL_EXECUTE_END|[62]|Rows:2
06:46:11.0 (18236806)|SOQL_EXECUTE_BEGIN|[67]|Aggregations:0| SELECT Id, Invoice__r.Name, Description_of_Change__c, Date_Change_Requested__c, Invoice__c,  MCS_Bucket__c, Amount__c  FROM Invoice_Adjustment__c  WHERE Employer_Account__c = :accountId AND (Invoice_Period__c = :invoiceDateVal  OR  CALENDAR_MONTH(Invoice_Period__c) = :invoicePreviousMonth)
06:46:11.0 (25057507)|SOQL_EXECUTE_END|[67]|Rows:3
06:46:11.0 (26568277)|CODE_UNIT_FINISHED|VFRemote: NewInvoiceAdjustmentController invoke(fetchInvoiceAdjustments)
06:46:11.0 (27942125)|EXECUTION_FINISHED
