45.0 APEX_CODE,DEBUG;APEX_PROFILING,INFO;CALLOUT,INFO;DB,INFO;NBA,INFO;SYSTEM,DEBUG;VALIDATION,INFO;VISUALFORCE,INFO;WAVE,INFO;WORKFLOW,NONE
04:31:32.0 (457708)|USER_INFO|[EXTERNAL]|0051N000006IqOb|developer@fastslowmotion.com.partial|(GMT-05:00) Central Daylight Time (America/Chicago)|GMT-05:00
04:31:32.0 (503534)|EXECUTION_STARTED
04:31:32.0 (509708)|CODE_UNIT_STARTED|[EXTERNAL]|066f0000000Wtdk|VF: /apex/NewInvoiceAdjustment
04:31:32.0 (1011840)|VF_DESERIALIZE_VIEWSTATE_BEGIN|066f0000000Wtdk
04:31:32.0 (8311309)|VF_DESERIALIZE_VIEWSTATE_END
04:31:32.0 (11820189)|SYSTEM_MODE_ENTER|true
04:31:32.0 (12123206)|SYSTEM_MODE_ENTER|true
04:31:32.0 (12217641)|SYSTEM_MODE_ENTER|true
04:31:32.0 (12279348)|SYSTEM_MODE_ENTER|true
04:31:32.0 (12728701)|SYSTEM_MODE_ENTER|true
04:31:32.0 (12916126)|SYSTEM_MODE_ENTER|true
04:31:32.0 (13046984)|SYSTEM_MODE_ENTER|true
04:31:32.0 (13146199)|SYSTEM_MODE_ENTER|true
04:31:32.0 (13222481)|SYSTEM_MODE_ENTER|true
04:31:32.0 (13275104)|SYSTEM_MODE_ENTER|true
04:31:32.0 (13498635)|SYSTEM_MODE_ENTER|true
04:31:32.0 (13553915)|SYSTEM_MODE_ENTER|true
04:31:32.0 (13599146)|SYSTEM_MODE_ENTER|true
04:31:32.0 (13718929)|SYSTEM_MODE_ENTER|true
04:31:32.0 (13802576)|SYSTEM_MODE_ENTER|true
04:31:32.0 (13877448)|SYSTEM_MODE_ENTER|true
04:31:32.0 (13943695)|SYSTEM_MODE_ENTER|true
04:31:32.0 (14089376)|SYSTEM_MODE_ENTER|true
04:31:32.0 (15029978)|SYSTEM_MODE_ENTER|true
04:31:32.0 (22507492)|SYSTEM_MODE_ENTER|true
04:31:32.0 (22585508)|SYSTEM_MODE_ENTER|true
04:31:32.0 (22636451)|SYSTEM_MODE_ENTER|true
04:31:32.0 (22773175)|SYSTEM_MODE_ENTER|true
04:31:32.0 (22860010)|SYSTEM_MODE_ENTER|true
04:31:32.0 (22932573)|SYSTEM_MODE_ENTER|true
04:31:32.0 (22981251)|SYSTEM_MODE_ENTER|true
04:31:32.0 (23036084)|SYSTEM_MODE_ENTER|true
04:31:32.0 (23086829)|SYSTEM_MODE_ENTER|true
04:31:32.0 (27920903)|SOQL_EXECUTE_BEGIN|[118]|Aggregations:0|SELECT Name,Type, Id FROM Account 
04:31:32.0 (32524849)|SOQL_EXECUTE_END|[118]|Rows:1
04:31:32.0 (34533110)|VF_SERIALIZE_VIEWSTATE_BEGIN|066f0000000Wtdk
04:31:32.0 (48270140)|VF_SERIALIZE_VIEWSTATE_END
04:31:32.0 (52232346)|CODE_UNIT_STARTED|[EXTERNAL]|Generate Metadata
04:31:32.0 (53797351)|CODE_UNIT_FINISHED|Generate Metadata
04:31:32.0 (86298638)|SYSTEM_MODE_ENTER|true
04:31:32.87 (87605752)|CUMULATIVE_LIMIT_USAGE
04:31:32.87 (87605752)|LIMIT_USAGE_FOR_NS|(default)|
  Number of SOQL queries: 1 out of 100
  Number of query rows: 1 out of 50000
  Number of SOSL queries: 0 out of 20
  Number of DML statements: 0 out of 150
  Number of DML rows: 0 out of 10000
  Maximum CPU time: 0 out of 10000
  Maximum heap size: 0 out of 6000000
  Number of callouts: 0 out of 100
  Number of Email Invocations: 0 out of 10
  Number of future calls: 0 out of 50
  Number of queueable jobs added to the queue: 0 out of 50
  Number of Mobile Apex push calls: 0 out of 10

04:31:32.87 (87605752)|CUMULATIVE_LIMIT_USAGE_END

04:31:32.0 (87660924)|CODE_UNIT_FINISHED|VF: /apex/NewInvoiceAdjustment
04:31:32.0 (88744076)|EXECUTION_FINISHED
